a:46:{i:0;a:3:{i:0;s:14:"document_start";i:1;a:0:{}i:2;i:0;}i:1;a:3:{i:0;s:6:"header";i:1;a:3:{i:0;s:10:"Presbiopia";i:1;i:1;i:2;i:1;}i:2;i:1;}i:2;a:3:{i:0;s:12:"section_open";i:1;a:1:{i:0;i:1;}i:2;i:1;}i:3;a:3:{i:0;s:6:"p_open";i:1;a:0:{}i:2;i:1;}i:4;a:3:{i:0;s:13:"internalmedia";i:1;a:7:{i:0;s:15:":presbiopia.jpg";i:1;s:0:"";i:2;s:5:"right";i:3;s:3:"300";i:4;N;i:5;s:5:"cache";i:6;s:7:"details";}i:2;i:26;}i:5;a:3:{i:0;s:5:"cdata";i:1;a:1:{i:0;s:377:"
Popularmente conhecida como “vista cansada”, a presbiopia é uma anomalia da visão que ocorre com o envelhecimento da pessoa. Essa anomalia é a perda de capacidade do cristalino de mudar seu foco para visualizar imagens próximas. Na maioria dos casos, ocorre por volta dos 40 anos de idade, podendo aparecer mais precocemente para pessoas com hipermetropia ou diabetes.";}i:2;i:51;}i:6;a:3:{i:0;s:7:"p_close";i:1;a:0:{}i:2;i:428;}i:7;a:3:{i:0;s:13:"section_close";i:1;a:0:{}i:2;i:430;}i:8;a:3:{i:0;s:6:"header";i:1;a:3:{i:0;s:8:"Sintomas";i:1;i:3;i:2;i:430;}i:2;i:430;}i:9;a:3:{i:0;s:12:"section_open";i:1;a:1:{i:0;i:3;}i:2;i:430;}i:10;a:3:{i:0;s:2:"hr";i:1;a:0:{}i:2;i:448;}i:11;a:3:{i:0;s:6:"p_open";i:1;a:0:{}i:2;i:448;}i:12;a:3:{i:0;s:5:"cdata";i:1;a:1:{i:0;s:153:"Pessoas que começam a desenvolver a presbiopia sofrem de
•	Diminuição da capacidade de foca em objeto próximos
•	Fadiga ocular
•	Dor de cabeça";}i:2;i:454;}i:13;a:3:{i:0;s:7:"p_close";i:1;a:0:{}i:2;i:607;}i:14;a:3:{i:0;s:13:"section_close";i:1;a:0:{}i:2;i:609;}i:15;a:3:{i:0;s:6:"header";i:1;a:3:{i:0;s:10:"Tratamento";i:1;i:3;i:2;i:609;}i:2;i:609;}i:16;a:3:{i:0;s:12:"section_open";i:1;a:1:{i:0;i:3;}i:2;i:609;}i:17;a:3:{i:0;s:2:"hr";i:1;a:0:{}i:2;i:629;}i:18;a:3:{i:0;s:6:"p_open";i:1;a:0:{}i:2;i:629;}i:19;a:3:{i:0;s:5:"cdata";i:1;a:1:{i:0;s:586:"Não há cura para a presbiopia, mas ela pode ser corrigida com óculos ou lentes de contato. Em alguns casos, a adição de lente bifocais ou multifocais à uma prescrição de óculos existente é suficiente. Conforme a capacidade de foco para perto piora, a prescrição bifocal precisa ser reforçada.
As pessoas que não precisam de óculos para visão à distância podem apenas precisar de meio óculos ou óculos de leitura.
Com o uso das lentes de contato, algumas pessoas escolhem por corrigir um olho para a visão de perto e um olho para visão de longe. Isso é chamado de ";}i:2;i:635;}i:20;a:3:{i:0;s:18:"doublequoteopening";i:1;a:0:{}i:2;i:1221;}i:21;a:3:{i:0;s:5:"cdata";i:1;a:1:{i:0;s:10:"monovisão";}i:2;i:1222;}i:22;a:3:{i:0;s:18:"doublequoteclosing";i:1;a:0:{}i:2;i:1232;}i:23;a:3:{i:0;s:5:"cdata";i:1;a:1:{i:0;s:409:" e elimina a necessidade de óculos bifocais ou óculos para leitura, mas pode afetar a percepção de profundidade.
Novos procedimentos cirúrgicos também podem fornecer soluções para pessoas que não querem usar óculos ou lentes de contato. A implantação de uma lente intraocular já possui aprovação na Europa para tratamento de presbiopia, dispensando de vez a necessidade de óculos para leitura.";}i:2;i:1233;}i:24;a:3:{i:0;s:7:"p_close";i:1;a:0:{}i:2;i:1642;}i:25;a:3:{i:0;s:13:"section_close";i:1;a:0:{}i:2;i:1644;}i:26;a:3:{i:0;s:6:"header";i:1;a:3:{i:0;s:11:"Prevenção";i:1;i:3;i:2;i:1644;}i:2;i:1644;}i:27;a:3:{i:0;s:12:"section_open";i:1;a:1:{i:0;i:3;}i:2;i:1644;}i:28;a:3:{i:0;s:2:"hr";i:1;a:0:{}i:2;i:1665;}i:29;a:3:{i:0;s:6:"p_open";i:1;a:0:{}i:2;i:1665;}i:30;a:3:{i:0;s:5:"cdata";i:1;a:1:{i:0;s:86:"Atualmente não existe nenhuma prevenção para presbiopia cientificamente comprovada.";}i:2;i:1671;}i:31;a:3:{i:0;s:7:"p_close";i:1;a:0:{}i:2;i:1757;}i:32;a:3:{i:0;s:13:"section_close";i:1;a:0:{}i:2;i:1759;}i:33;a:3:{i:0;s:6:"header";i:1;a:3:{i:0;s:12:"Referências";i:1;i:3;i:2;i:1759;}i:2;i:1759;}i:34;a:3:{i:0;s:12:"section_open";i:1;a:1:{i:0;i:3;}i:2;i:1759;}i:35;a:3:{i:0;s:2:"hr";i:1;a:0:{}i:2;i:1781;}i:36;a:3:{i:0;s:6:"p_open";i:1;a:0:{}i:2;i:1781;}i:37;a:3:{i:0;s:12:"externallink";i:1;a:2:{i:0;s:50:"http://www.minhavida.com.br/saude/temas/presbiopia";i:1;N;}i:2;i:1787;}i:38;a:3:{i:0;s:9:"linebreak";i:1;a:0:{}i:2;i:1841;}i:39;a:3:{i:0;s:5:"cdata";i:1;a:1:{i:0;s:1:"
";}i:2;i:1843;}i:40;a:3:{i:0;s:12:"externallink";i:1;a:2:{i:0;s:39:"http://en.wikipedia.org/wiki/Presbyopia";i:1;N;}i:2;i:1844;}i:41;a:3:{i:0;s:9:"linebreak";i:1;a:0:{}i:2;i:1887;}i:42;a:3:{i:0;s:5:"cdata";i:1;a:1:{i:0;s:0:"";}i:2;i:1889;}i:43;a:3:{i:0;s:7:"p_close";i:1;a:0:{}i:2;i:1889;}i:44;a:3:{i:0;s:13:"section_close";i:1;a:0:{}i:2;i:1889;}i:45;a:3:{i:0;s:12:"document_end";i:1;a:0:{}i:2;i:1889;}}