a:79:{i:0;a:3:{i:0;s:14:"document_start";i:1;a:0:{}i:2;i:0;}i:1;a:3:{i:0;s:6:"header";i:1;a:3:{i:0;s:14:"Apresentação";i:1;i:2;i:2;i:1;}i:2;i:1;}i:2;a:3:{i:0;s:12:"section_open";i:1;a:1:{i:0;i:2;}i:2;i:1;}i:3;a:3:{i:0;s:6:"p_open";i:1;a:0:{}i:2;i:1;}i:4;a:3:{i:0;s:5:"cdata";i:1;a:1:{i:0;s:279:"A Wiki | Hatsu é um projeto de enciclopédia voltada para o universo da visão. Com o objetivo de fornecer conteúdo útil e de credibilidade, criamos artigos relacionados às doenças da visão, procedimentos cirúrgicos, anatomia do olho, profissionais da área, entre outros.";}i:2;i:27;}i:5;a:3:{i:0;s:7:"p_close";i:1;a:0:{}i:2;i:306;}i:6;a:3:{i:0;s:2:"hr";i:1;a:0:{}i:2;i:306;}i:7;a:3:{i:0;s:13:"section_close";i:1;a:0:{}i:2;i:312;}i:8;a:3:{i:0;s:6:"header";i:1;a:3:{i:0;s:18:"Artigo em destaque";i:1;i:2;i:2;i:312;}i:2;i:312;}i:9;a:3:{i:0;s:12:"section_open";i:1;a:1:{i:0;i:2;}i:2;i:312;}i:10;a:3:{i:0;s:6:"p_open";i:1;a:0:{}i:2;i:312;}i:11;a:3:{i:0;s:13:"internalmedia";i:1;a:7:{i:0;s:15:":daltonismo.jpg";i:1;s:0:"";i:2;s:5:"right";i:3;s:3:"200";i:4;N;i:5;s:5:"cache";i:6;s:7:"details";}i:2;i:343;}i:12;a:3:{i:0;s:5:"cdata";i:1;a:1:{i:0;s:790:"
O daltonismo (também chamado de discromatopsia ou discromopsia) é uma perturbação da percepção visual caracterizada pela incapacidade de diferenciar determinadas cores. Esta perturbação tem normalmente origem genética, mas pode também resultar de lesão nos órgãos responsáveis pela visão, ou lesão de origem neurológica. 
Como o daltonismo esta geneticamente ligado ao cromossomo X, ocorre com maior frequência entre os homens, que
possuem apenas um cromossomo X, enquanto as mulheres possuem dois.
Os daltônicos apresentam dificuldade na percepção de determinadas cores primárias, como o verde e o vermelho, o que se repercute na percepção das restantes cores do espectro de cores.
Os mais comuns tipos de daltonismo são: deuteranomalia, protanopia e tritanopia. ";}i:2;i:368;}i:13;a:3:{i:0;s:11:"strong_open";i:1;a:0:{}i:2;i:1158;}i:14;a:3:{i:0;s:5:"cdata";i:1;a:1:{i:0;s:1:"(";}i:2;i:1160;}i:15;a:3:{i:0;s:12:"internallink";i:1;a:2:{i:0;s:10:"Daltonismo";i:1;s:12:"leia mais...";}i:2;i:1161;}i:16;a:3:{i:0;s:5:"cdata";i:1;a:1:{i:0;s:1:")";}i:2;i:1188;}i:17;a:3:{i:0;s:12:"strong_close";i:1;a:0:{}i:2;i:1189;}i:18;a:3:{i:0;s:7:"p_close";i:1;a:0:{}i:2;i:1191;}i:19;a:3:{i:0;s:2:"hr";i:1;a:0:{}i:2;i:1193;}i:20;a:3:{i:0;s:13:"section_close";i:1;a:0:{}i:2;i:1199;}i:21;a:3:{i:0;s:6:"header";i:1;a:3:{i:0;s:12:"Sabia que...";i:1;i:2;i:2;i:1199;}i:2;i:1199;}i:22;a:3:{i:0;s:12:"section_open";i:1;a:1:{i:0;i:2;}i:2;i:1199;}i:23;a:3:{i:0;s:10:"listu_open";i:1;a:0:{}i:2;i:1224;}i:24;a:3:{i:0;s:13:"listitem_open";i:1;a:1:{i:0;i:1;}i:2;i:1224;}i:25;a:3:{i:0;s:16:"listcontent_open";i:1;a:0:{}i:2;i:1224;}i:26;a:3:{i:0;s:5:"cdata";i:1;a:1:{i:0;s:1:" ";}i:2;i:1228;}i:27;a:3:{i:0;s:6:"entity";i:1;a:1:{i:0;s:3:"...";}i:2;i:1229;}i:28;a:3:{i:0;s:5:"cdata";i:1;a:1:{i:0;s:45:"o peso médio do olho humano é de 28 gramas?";}i:2;i:1232;}i:29;a:3:{i:0;s:17:"listcontent_close";i:1;a:0:{}i:2;i:1277;}i:30;a:3:{i:0;s:14:"listitem_close";i:1;a:0:{}i:2;i:1277;}i:31;a:3:{i:0;s:13:"listitem_open";i:1;a:1:{i:0;i:1;}i:2;i:1277;}i:32;a:3:{i:0;s:16:"listcontent_open";i:1;a:0:{}i:2;i:1277;}i:33;a:3:{i:0;s:5:"cdata";i:1;a:1:{i:0;s:1:" ";}i:2;i:1281;}i:34;a:3:{i:0;s:6:"entity";i:1;a:1:{i:0;s:3:"...";}i:2;i:1282;}i:35;a:3:{i:0;s:5:"cdata";i:1;a:1:{i:0;s:49:"você pisca aproximadamente 15 mil vezes por dia?";}i:2;i:1285;}i:36;a:3:{i:0;s:17:"listcontent_close";i:1;a:0:{}i:2;i:1334;}i:37;a:3:{i:0;s:14:"listitem_close";i:1;a:0:{}i:2;i:1334;}i:38;a:3:{i:0;s:13:"listitem_open";i:1;a:1:{i:0;i:1;}i:2;i:1334;}i:39;a:3:{i:0;s:16:"listcontent_open";i:1;a:0:{}i:2;i:1334;}i:40;a:3:{i:0;s:5:"cdata";i:1;a:1:{i:0;s:1:" ";}i:2;i:1338;}i:41;a:3:{i:0;s:6:"entity";i:1;a:1:{i:0;s:3:"...";}i:2;i:1339;}i:42;a:3:{i:0;s:5:"cdata";i:1;a:1:{i:0;s:60:"o olho humano é capaz de ver cerca de 10 milhões de cores?";}i:2;i:1342;}i:43;a:3:{i:0;s:17:"listcontent_close";i:1;a:0:{}i:2;i:1402;}i:44;a:3:{i:0;s:14:"listitem_close";i:1;a:0:{}i:2;i:1402;}i:45;a:3:{i:0;s:13:"listitem_open";i:1;a:1:{i:0;i:1;}i:2;i:1402;}i:46;a:3:{i:0;s:16:"listcontent_open";i:1;a:0:{}i:2;i:1402;}i:47;a:3:{i:0;s:5:"cdata";i:1;a:1:{i:0;s:1:" ";}i:2;i:1406;}i:48;a:3:{i:0;s:6:"entity";i:1;a:1:{i:0;s:3:"...";}i:2;i:1407;}i:49;a:3:{i:0;s:5:"cdata";i:1;a:1:{i:0;s:67:"cerca de 50% da população mundial tem algum distúrbio da visão?";}i:2;i:1410;}i:50;a:3:{i:0;s:17:"listcontent_close";i:1;a:0:{}i:2;i:1477;}i:51;a:3:{i:0;s:14:"listitem_close";i:1;a:0:{}i:2;i:1477;}i:52;a:3:{i:0;s:13:"listitem_open";i:1;a:1:{i:0;i:1;}i:2;i:1477;}i:53;a:3:{i:0;s:16:"listcontent_open";i:1;a:0:{}i:2;i:1477;}i:54;a:3:{i:0;s:5:"cdata";i:1;a:1:{i:0;s:1:" ";}i:2;i:1481;}i:55;a:3:{i:0;s:6:"entity";i:1;a:1:{i:0;s:3:"...";}i:2;i:1482;}i:56;a:3:{i:0;s:5:"cdata";i:1;a:1:{i:0;s:344:"bebes não produzem lagrimas até aproximadamente 2 meses de idade?                                                                                                                                                                                                                                                                                     ";}i:2;i:1485;}i:57;a:3:{i:0;s:17:"listcontent_close";i:1;a:0:{}i:2;i:1829;}i:58;a:3:{i:0;s:14:"listitem_close";i:1;a:0:{}i:2;i:1829;}i:59;a:3:{i:0;s:11:"listu_close";i:1;a:0:{}i:2;i:1829;}i:60;a:3:{i:0;s:2:"hr";i:1;a:0:{}i:2;i:1830;}i:61;a:3:{i:0;s:13:"section_close";i:1;a:0:{}i:2;i:1836;}i:62;a:3:{i:0;s:6:"header";i:1;a:3:{i:0;s:16:"Imagem da semana";i:1;i:2;i:2;i:1836;}i:2;i:1836;}i:63;a:3:{i:0;s:12:"section_open";i:1;a:1:{i:0;i:2;}i:2;i:1836;}i:64;a:3:{i:0;s:6:"p_open";i:1;a:0:{}i:2;i:1836;}i:65;a:3:{i:0;s:13:"internalmedia";i:1;a:7:{i:0;s:13:":semana_1.jpg";i:1;s:0:"";i:2;s:6:"center";i:3;s:3:"200";i:4;N;i:5;s:5:"cache";i:6;s:7:"details";}i:2;i:1865;}i:66;a:3:{i:0;s:7:"p_close";i:1;a:0:{}i:2;i:1889;}i:67;a:3:{i:0;s:6:"p_open";i:1;a:0:{}i:2;i:1889;}i:68;a:3:{i:0;s:18:"doublequoteopening";i:1;a:0:{}i:2;i:1891;}i:69;a:3:{i:0;s:5:"cdata";i:1;a:1:{i:0;s:19:"Your beautiful eyes";}i:2;i:1892;}i:70;a:3:{i:0;s:18:"doublequoteclosing";i:1;a:0:{}i:2;i:1911;}i:71;a:3:{i:0;s:5:"cdata";i:1;a:1:{i:0;s:20:" por Suren Manvelyan";}i:2;i:1912;}i:72;a:3:{i:0;s:7:"p_close";i:1;a:0:{}i:2;i:1932;}i:73;a:3:{i:0;s:6:"p_open";i:1;a:0:{}i:2;i:1932;}i:74;a:3:{i:0;s:6:"plugin";i:1;a:4:{i:0;s:4:"meta";i:1;a:1:{s:5:"title";s:12:"Wiki | Hatsu";}i:2;i:5;i:3;s:27:"~~META:title=Wiki | Hatsu~~";}i:2;i:1934;}i:75;a:3:{i:0;s:5:"cdata";i:1;a:1:{i:0;s:0:"";}i:2;i:1961;}i:76;a:3:{i:0;s:7:"p_close";i:1;a:0:{}i:2;i:1961;}i:77;a:3:{i:0;s:13:"section_close";i:1;a:0:{}i:2;i:1961;}i:78;a:3:{i:0;s:12:"document_end";i:1;a:0:{}i:2;i:1961;}}