a:44:{i:0;a:3:{i:0;s:14:"document_start";i:1;a:0:{}i:2;i:0;}i:1;a:3:{i:0;s:6:"header";i:1;a:3:{i:0;s:20:"Cirurgia de catarata";i:1;i:1;i:2;i:1;}i:2;i:1;}i:2;a:3:{i:0;s:12:"section_open";i:1;a:1:{i:0;i:1;}i:2;i:1;}i:3;a:3:{i:0;s:6:"p_open";i:1;a:0:{}i:2;i:1;}i:4;a:3:{i:0;s:13:"internalmedia";i:1;a:7:{i:0;s:22:":cirurgia_catarata.jpg";i:1;s:0:"";i:2;s:5:"right";i:3;s:3:"250";i:4;N;i:5;s:5:"cache";i:6;s:7:"details";}i:2;i:36;}i:5;a:3:{i:0;s:5:"cdata";i:1;a:1:{i:0;s:760:"
A cirurgia de catarata ou facectomia é a remoção do cristalino do olho que tornou-se opaco, referenciado como catarata.
Cristalino é uma lente que temos no nosso olho, que deve ser totalmente transparente. Com o passar dos anos e devido as variações metabólicas das fibras do cristalino induzidas principalmente pela radiação ultravioleta, essa lente natural perde a transparência, ficando opaca, amarelada. Isso é o que é chamado de catarata. A perda de transparência do cristalino causa diminuição da acuidade visual. 
Para a volta da transparência do cristalino, uma cirurgia é necessária. Na cirurgia a lente natural é removida e substituída por uma lente sintética, chamada lente intraocular, sendo assim recuperada a transparência.";}i:2;i:68;}i:6;a:3:{i:0;s:7:"p_close";i:1;a:0:{}i:2;i:828;}i:7;a:3:{i:0;s:13:"section_close";i:1;a:0:{}i:2;i:830;}i:8;a:3:{i:0;s:6:"header";i:1;a:3:{i:0;s:8:"Cirurgia";i:1;i:3;i:2;i:830;}i:2;i:830;}i:9;a:3:{i:0;s:12:"section_open";i:1;a:1:{i:0;i:3;}i:2;i:830;}i:10;a:3:{i:0;s:2:"hr";i:1;a:0:{}i:2;i:848;}i:11;a:3:{i:0;s:6:"p_open";i:1;a:0:{}i:2;i:848;}i:12;a:3:{i:0;s:5:"cdata";i:1;a:1:{i:0;s:1104:"Atualmente existem duas técnicas de cirurgia de catarata. A facectomia extracapsular, onde é feita uma abertura grande no olho e a lente é implantada direto dentro do olho. Já a técnica mais moderna da cirurgia da catarata, chamada facoemulsificação, ocorre por uma abertura pequena no olho e a lente intraocular entra dobrada através dessa pequena abertura. Com isso, a inflamação no pós operatório é menor, os riscos são menores, a necessidade de fazer sutura (dar pontos) é menor ou mesmo inexistente. A facoemulsificação é muito superior à facectomia e isso contribuiu muito para o sucesso da cirurgia de catarata em todo o mundo. No entanto, a facoemulsificação envolve um custo muito elevado devidos aos equipamentos usados e a lente intraocular própria para esse tipo de técnica. Por isso, em alguns lugares, a técnica extracapsular ainda é utilizada.
A cirurgia é feita sob anestesia local, o paciente não precisa dormir no hospital (internação de curta permanência ou internação-dia). A taxa de sucesso supera os 90%, com uma taxa de complicações muito pequena.";}i:2;i:855;}i:13;a:3:{i:0;s:7:"p_close";i:1;a:0:{}i:2;i:1959;}i:14;a:3:{i:0;s:13:"section_close";i:1;a:0:{}i:2;i:1961;}i:15;a:3:{i:0;s:6:"header";i:1;a:3:{i:0;s:25:"Cuidados pós-cirúrgicos";i:1;i:3;i:2;i:1961;}i:2;i:1961;}i:16;a:3:{i:0;s:12:"section_open";i:1;a:1:{i:0;i:3;}i:2;i:1961;}i:17;a:3:{i:0;s:2:"hr";i:1;a:0:{}i:2;i:1996;}i:18;a:3:{i:0;s:6:"p_open";i:1;a:0:{}i:2;i:1996;}i:19;a:3:{i:0;s:5:"cdata";i:1;a:1:{i:0;s:405:"Após a cirurgia, seus olhos podem ficarem sensíveis ao toque e até mesmo arranhar um pouco por alguns dias. Você talvez veja alguns brilhos. Com o tempo há a normalização do olho.
Colírios prescritos pelo médico deverão ser tomados nos horários indicados.
Não é permitido dirigir no primeiro dia após a cirurgia. Evite também esfregar o olho, usar maquiagem, atividade em que haja esforço.";}i:2;i:2003;}i:20;a:3:{i:0;s:7:"p_close";i:1;a:0:{}i:2;i:2408;}i:21;a:3:{i:0;s:13:"section_close";i:1;a:0:{}i:2;i:2410;}i:22;a:3:{i:0;s:6:"header";i:1;a:3:{i:0;s:12:"Referências";i:1;i:3;i:2;i:2410;}i:2;i:2410;}i:23;a:3:{i:0;s:12:"section_open";i:1;a:1:{i:0;i:3;}i:2;i:2410;}i:24;a:3:{i:0;s:2:"hr";i:1;a:0:{}i:2;i:2432;}i:25;a:3:{i:0;s:6:"p_open";i:1;a:0:{}i:2;i:2432;}i:26;a:3:{i:0;s:12:"externallink";i:1;a:2:{i:0;s:55:"http://www.medicinenet.com/cataract_surgery/article.htm";i:1;N;}i:2;i:2438;}i:27;a:3:{i:0;s:9:"linebreak";i:1;a:0:{}i:2;i:2497;}i:28;a:3:{i:0;s:5:"cdata";i:1;a:1:{i:0;s:1:"
";}i:2;i:2499;}i:29;a:3:{i:0;s:12:"externallink";i:1;a:2:{i:0;s:76:"http://www.nhs.uk/Conditions/Cataract-surgery/Pages/How-it-is-performed.aspx";i:1;N;}i:2;i:2500;}i:30;a:3:{i:0;s:9:"linebreak";i:1;a:0:{}i:2;i:2580;}i:31;a:3:{i:0;s:5:"cdata";i:1;a:1:{i:0;s:1:"
";}i:2;i:2582;}i:32;a:3:{i:0;s:12:"externallink";i:1;a:2:{i:0;s:45:"http://en.wikipedia.org/wiki/Cataract_surgery";i:1;N;}i:2;i:2583;}i:33;a:3:{i:0;s:9:"linebreak";i:1;a:0:{}i:2;i:2632;}i:34;a:3:{i:0;s:5:"cdata";i:1;a:1:{i:0;s:1:"
";}i:2;i:2634;}i:35;a:3:{i:0;s:12:"externallink";i:1;a:2:{i:0;s:99:"http://www.cirurgiadecatarata.com.br/seek-treatment-for-cataracts/immediately-to-24-hours-after.asp";i:1;N;}i:2;i:2635;}i:36;a:3:{i:0;s:9:"linebreak";i:1;a:0:{}i:2;i:2738;}i:37;a:3:{i:0;s:7:"p_close";i:1;a:0:{}i:2;i:2740;}i:38;a:3:{i:0;s:6:"p_open";i:1;a:0:{}i:2;i:2740;}i:39;a:3:{i:0;s:6:"plugin";i:1;a:4:{i:0;s:4:"meta";i:1;a:1:{s:5:"title";s:20:"Cirurgia de catarata";}i:2;i:5;i:3;s:35:"~~META:title=Cirurgia de catarata~~";}i:2;i:2743;}i:40;a:3:{i:0;s:5:"cdata";i:1;a:1:{i:0;s:0:"";}i:2;i:2778;}i:41;a:3:{i:0;s:7:"p_close";i:1;a:0:{}i:2;i:2778;}i:42;a:3:{i:0;s:13:"section_close";i:1;a:0:{}i:2;i:2778;}i:43;a:3:{i:0;s:12:"document_end";i:1;a:0:{}i:2;i:2778;}}