a:121:{i:0;a:3:{i:0;s:14:"document_start";i:1;a:0:{}i:2;i:0;}i:1;a:3:{i:0;s:6:"header";i:1;a:3:{i:0;s:23:"Anatomia do Olho Humano";i:1;i:1;i:2;i:1;}i:2;i:1;}i:2;a:3:{i:0;s:12:"section_open";i:1;a:1:{i:0;i:1;}i:2;i:1;}i:3;a:3:{i:0;s:6:"p_open";i:1;a:0:{}i:2;i:1;}i:4;a:3:{i:0;s:13:"internalmedia";i:1;a:7:{i:0;s:28:":anatomia_do_olho_humano.png";i:1;s:0:"";i:2;s:5:"right";i:3;s:3:"250";i:4;N;i:5;s:5:"cache";i:6;s:7:"details";}i:2;i:40;}i:5;a:3:{i:0;s:5:"cdata";i:1;a:1:{i:0;s:287:"
Anatomicamente o olho é um globo levemente assimétrico de aproximadamente 2,5 centímetros de diâmetro. A parte frontal do olho inclui córnea, esclera (branco do olho), íris, pupila, e cristalino. Já seu interior é composto basicamente do humor vítreo, canal hialoideo e retina.";}i:2;i:78;}i:6;a:3:{i:0;s:7:"p_close";i:1;a:0:{}i:2;i:365;}i:7;a:3:{i:0;s:13:"section_close";i:1;a:0:{}i:2;i:367;}i:8;a:3:{i:0;s:6:"header";i:1;a:3:{i:0;s:5:"Geral";i:1;i:3;i:2;i:367;}i:2;i:367;}i:9;a:3:{i:0;s:12:"section_open";i:1;a:1:{i:0;i:3;}i:2;i:367;}i:10;a:3:{i:0;s:2:"hr";i:1;a:0:{}i:2;i:382;}i:11;a:3:{i:0;s:6:"p_open";i:1;a:0:{}i:2;i:382;}i:12;a:3:{i:0;s:5:"cdata";i:1;a:1:{i:0;s:523:"Acondicionado dentro de uma cavidade óssea, o olho humano possui em seu exterior seis músculos responsáveis pela movimentação do olho.
Dividindo o olho humano em três camadas, na camada mais externa temos a córnea e esclera, que são responsável pela proteção. Já íris, coroide e o corpo ciliar fazem parte da camada média. A camada interna é constituída da retina e seus vasos. Encontra-se no espaço interno do globo ocular o humor vítreo, substância gelatinosa responsável pela forma esférica do olho.";}i:2;i:388;}i:13;a:3:{i:0;s:7:"p_close";i:1;a:0:{}i:2;i:911;}i:14;a:3:{i:0;s:13:"section_close";i:1;a:0:{}i:2;i:913;}i:15;a:3:{i:0;s:6:"header";i:1;a:3:{i:0;s:7:"Córnea";i:1;i:3;i:2;i:913;}i:2;i:913;}i:16;a:3:{i:0;s:12:"section_open";i:1;a:1:{i:0;i:3;}i:2;i:913;}i:17;a:3:{i:0;s:2:"hr";i:1;a:0:{}i:2;i:930;}i:18;a:3:{i:0;s:6:"p_open";i:1;a:0:{}i:2;i:930;}i:19;a:3:{i:0;s:5:"cdata";i:1;a:1:{i:0;s:392:"Com função de proteção dos olhos, a córnea fica localizada na parte mais externa do olho, tendo contato direto com o exterior.
Por não possuir vaso sanguíneo a estrutura da córnea é praticamente totalmente transparente.
Caso a córnea desenvolva alguma opacidade, irregularidade ou edema, é possível a substituição da córnea por uma saudável através do transplante de córnea.";}i:2;i:936;}i:20;a:3:{i:0;s:7:"p_close";i:1;a:0:{}i:2;i:1328;}i:21;a:3:{i:0;s:13:"section_close";i:1;a:0:{}i:2;i:1330;}i:22;a:3:{i:0;s:6:"header";i:1;a:3:{i:0;s:7:"Esclera";i:1;i:3;i:2;i:1330;}i:2;i:1330;}i:23;a:3:{i:0;s:12:"section_open";i:1;a:1:{i:0;i:3;}i:2;i:1330;}i:24;a:3:{i:0;s:2:"hr";i:1;a:0:{}i:2;i:1347;}i:25;a:3:{i:0;s:6:"p_open";i:1;a:0:{}i:2;i:1347;}i:26;a:3:{i:0;s:5:"cdata";i:1;a:1:{i:0;s:301:"A esclera, popularmente conhecida como “branco do olho” reveste o globo ocular. Os seis músculos responsáveis pelo movimento do olho estão ligados à esclera.
Nas crianças a esclera possui coloração azulada, enquanto nos idosos, devido ao acúmulo de gordura, adquire uma cor mais amarelada.";}i:2;i:1353;}i:27;a:3:{i:0;s:7:"p_close";i:1;a:0:{}i:2;i:1654;}i:28;a:3:{i:0;s:13:"section_close";i:1;a:0:{}i:2;i:1656;}i:29;a:3:{i:0;s:6:"header";i:1;a:3:{i:0;s:5:"Íris";i:1;i:3;i:2;i:1656;}i:2;i:1656;}i:30;a:3:{i:0;s:12:"section_open";i:1;a:1:{i:0;i:3;}i:2;i:1656;}i:31;a:3:{i:0;s:2:"hr";i:1;a:0:{}i:2;i:1671;}i:32;a:3:{i:0;s:6:"p_open";i:1;a:0:{}i:2;i:1671;}i:33;a:3:{i:0;s:5:"cdata";i:1;a:1:{i:0;s:217:"Parte colorida e de maior visibilidade do olho, a íris é responsável por controlar o diâmetro da pupila, controlando assim a quantidade de luz que chegará a retina.
A íris é dividia em duas principais regiões:";}i:2;i:1677;}i:34;a:3:{i:0;s:7:"p_close";i:1;a:0:{}i:2;i:1894;}i:35;a:3:{i:0;s:10:"listu_open";i:1;a:0:{}i:2;i:1894;}i:36;a:3:{i:0;s:13:"listitem_open";i:1;a:1:{i:0;i:1;}i:2;i:1894;}i:37;a:3:{i:0;s:16:"listcontent_open";i:1;a:0:{}i:2;i:1894;}i:38;a:3:{i:0;s:5:"cdata";i:1;a:1:{i:0;s:72:" Zona pupilar; região interna cuja borda forma a fronteira com a pupila";}i:2;i:1899;}i:39;a:3:{i:0;s:17:"listcontent_close";i:1;a:0:{}i:2;i:1971;}i:40;a:3:{i:0;s:14:"listitem_close";i:1;a:0:{}i:2;i:1971;}i:41;a:3:{i:0;s:13:"listitem_open";i:1;a:1:{i:0;i:1;}i:2;i:1971;}i:42;a:3:{i:0;s:16:"listcontent_open";i:1;a:0:{}i:2;i:1971;}i:43;a:3:{i:0;s:5:"cdata";i:1;a:1:{i:0;s:63:" Zona ciliar; resto da íris que se estende até o corpo ciliar";}i:2;i:1975;}i:44;a:3:{i:0;s:17:"listcontent_close";i:1;a:0:{}i:2;i:2038;}i:45;a:3:{i:0;s:14:"listitem_close";i:1;a:0:{}i:2;i:2038;}i:46;a:3:{i:0;s:11:"listu_close";i:1;a:0:{}i:2;i:2038;}i:47;a:3:{i:0;s:6:"p_open";i:1;a:0:{}i:2;i:2038;}i:48;a:3:{i:0;s:5:"cdata";i:1;a:1:{i:0;s:242:"Dependendo da cor da íris, cada olho tem uma leve diferença de sensibilidade à luz. Por exemplo, um olho com íris de pigmentação azul ficará mais incomodado ao sair na rua com o sol muito forte que uma pessoa com íris castanho escuro.";}i:2;i:2039;}i:49;a:3:{i:0;s:7:"p_close";i:1;a:0:{}i:2;i:2281;}i:50;a:3:{i:0;s:13:"section_close";i:1;a:0:{}i:2;i:2283;}i:51;a:3:{i:0;s:6:"header";i:1;a:3:{i:0;s:6:"Pupila";i:1;i:3;i:2;i:2283;}i:2;i:2283;}i:52;a:3:{i:0;s:12:"section_open";i:1;a:1:{i:0;i:3;}i:2;i:2283;}i:53;a:3:{i:0;s:2:"hr";i:1;a:0:{}i:2;i:2299;}i:54;a:3:{i:0;s:6:"p_open";i:1;a:0:{}i:2;i:2299;}i:55;a:3:{i:0;s:5:"cdata";i:1;a:1:{i:0;s:429:"Situada entre a córnea e o cristalino, e exatamente no meio da íris, é responsável pela passagem de luz do meio exterior para a retina. Por não haver iluminação na parte interna dos olhos, sua aparência é completamente preta.
Nos humanos possui formato circular, enquanto em felinos possui orientação vertical pois aumenta a percepção do deslocamento no plano horizontal, facilitando a visualização de suas presas.";}i:2;i:2305;}i:56;a:3:{i:0;s:7:"p_close";i:1;a:0:{}i:2;i:2734;}i:57;a:3:{i:0;s:13:"section_close";i:1;a:0:{}i:2;i:2736;}i:58;a:3:{i:0;s:6:"header";i:1;a:3:{i:0;s:10:"Cristalino";i:1;i:3;i:2;i:2736;}i:2;i:2736;}i:59;a:3:{i:0;s:12:"section_open";i:1;a:1:{i:0;i:3;}i:2;i:2736;}i:60;a:3:{i:0;s:2:"hr";i:1;a:0:{}i:2;i:2756;}i:61;a:3:{i:0;s:6:"p_open";i:1;a:0:{}i:2;i:2756;}i:62;a:3:{i:0;s:5:"cdata";i:1;a:1:{i:0;s:435:"O cristalino é a lente natural do olho, por onde os raios luminosos que entram pela íris passam. A função do cristalino é convergir tais raios em direção a retina, para os fotorreceptores serem capazes de receber a informação corretamente. Essa função é atingida através da sua capacidade de alterar sua dioptria, focando imagens distantes e de perto. Com o avanço da idade esta capacidade diminui, surgindo a presbiopia.";}i:2;i:2762;}i:63;a:3:{i:0;s:7:"p_close";i:1;a:0:{}i:2;i:3197;}i:64;a:3:{i:0;s:13:"section_close";i:1;a:0:{}i:2;i:3199;}i:65;a:3:{i:0;s:6:"header";i:1;a:3:{i:0;s:6:"Retina";i:1;i:3;i:2;i:3199;}i:2;i:3199;}i:66;a:3:{i:0;s:12:"section_open";i:1;a:1:{i:0;i:3;}i:2;i:3199;}i:67;a:3:{i:0;s:2:"hr";i:1;a:0:{}i:2;i:3215;}i:68;a:3:{i:0;s:6:"p_open";i:1;a:0:{}i:2;i:3215;}i:69;a:3:{i:0;s:5:"cdata";i:1;a:1:{i:0;s:360:"Composta por células sensíveis à luz, chamadas de fotorreceptores, a retina é responsável por absorver toda luz que entra no olho e transformar essa luz em sinais emitidos para o nervo óptico que serão traduzidos pelo cérebro. Essa transmissão de sinais através da absorção de luz é feita pelas células: bastonetes, cones e células ganglionares.";}i:2;i:3221;}i:70;a:3:{i:0;s:7:"p_close";i:1;a:0:{}i:2;i:3581;}i:71;a:3:{i:0;s:13:"section_close";i:1;a:0:{}i:2;i:3583;}i:72;a:3:{i:0;s:6:"header";i:1;a:3:{i:0;s:13:"Humor Vítreo";i:1;i:3;i:2;i:3583;}i:2;i:3583;}i:73;a:3:{i:0;s:12:"section_open";i:1;a:1:{i:0;i:3;}i:2;i:3583;}i:74;a:3:{i:0;s:2:"hr";i:1;a:0:{}i:2;i:3606;}i:75;a:3:{i:0;s:6:"p_open";i:1;a:0:{}i:2;i:3606;}i:76;a:3:{i:0;s:5:"cdata";i:1;a:1:{i:0;s:408:"Também conhecido por corpo vítreo, é a substância gelatinosa que se encontra entre o cristalino e a retina. Tal substância é produzida pelas células do corpo ciliar. Como esse fluído permanece estagnado no interior do globo ocular, sangue ou células vindas de inflamações que entrem em contato com o fluído permanecerão no humor vítreo até serem removidos cirurgicamente, se assim necessário.";}i:2;i:3612;}i:77;a:3:{i:0;s:7:"p_close";i:1;a:0:{}i:2;i:4020;}i:78;a:3:{i:0;s:13:"section_close";i:1;a:0:{}i:2;i:4023;}i:79;a:3:{i:0;s:6:"header";i:1;a:3:{i:0;s:15:"Canal Hialoideo";i:1;i:3;i:2;i:4023;}i:2;i:4023;}i:80;a:3:{i:0;s:12:"section_open";i:1;a:1:{i:0;i:3;}i:2;i:4023;}i:81;a:3:{i:0;s:2:"hr";i:1;a:0:{}i:2;i:4048;}i:82;a:3:{i:0;s:6:"p_open";i:1;a:0:{}i:2;i:4048;}i:83;a:3:{i:0;s:5:"cdata";i:1;a:1:{i:0;s:243:"O canal hialoideo é um canal transparente que vai do cristalino ao nervo óptico, tem como função variar seu volume de forma inversa a variação de volume do cristalino (ver “6. Cristalino”, de modo a deixar o volume do olho constante.";}i:2;i:4054;}i:84;a:3:{i:0;s:7:"p_close";i:1;a:0:{}i:2;i:4297;}i:85;a:3:{i:0;s:13:"section_close";i:1;a:0:{}i:2;i:4299;}i:86;a:3:{i:0;s:6:"header";i:1;a:3:{i:0;s:13:"Nervo Óptico";i:1;i:3;i:2;i:4299;}i:2;i:4299;}i:87;a:3:{i:0;s:12:"section_open";i:1;a:1:{i:0;i:3;}i:2;i:4299;}i:88;a:3:{i:0;s:2:"hr";i:1;a:0:{}i:2;i:4322;}i:89;a:3:{i:0;s:6:"p_open";i:1;a:0:{}i:2;i:4322;}i:90;a:3:{i:0;s:5:"cdata";i:1;a:1:{i:0;s:368:"Ligando os fotorreceptores da retina ao lóbulo occipital do cérebro, a função do nervo óptico é transmitir as informações captadas pelos cones e bastonetes presentes na retina e enviar ao lóbulo occipital onde tais informações serão processadas gerando resultados de cor, forma, tamanho, distância e noções de espaço que são presentes em nossa visão.";}i:2;i:4328;}i:91;a:3:{i:0;s:7:"p_close";i:1;a:0:{}i:2;i:4696;}i:92;a:3:{i:0;s:13:"section_close";i:1;a:0:{}i:2;i:4698;}i:93;a:3:{i:0;s:6:"header";i:1;a:3:{i:0;s:12:"Referências";i:1;i:3;i:2;i:4698;}i:2;i:4698;}i:94;a:3:{i:0;s:12:"section_open";i:1;a:1:{i:0;i:3;}i:2;i:4698;}i:95;a:3:{i:0;s:6:"p_open";i:1;a:0:{}i:2;i:4698;}i:96;a:3:{i:0;s:12:"externallink";i:1;a:2:{i:0;s:40:"http://pt.wikipedia.org/wiki/Olho_humano";i:1;N;}i:2;i:4721;}i:97;a:3:{i:0;s:9:"linebreak";i:1;a:0:{}i:2;i:4765;}i:98;a:3:{i:0;s:5:"cdata";i:1;a:1:{i:0;s:1:"
";}i:2;i:4767;}i:99;a:3:{i:0;s:12:"externallink";i:1;a:2:{i:0;s:43:"http://en.wikipedia.org/wiki/Iris_(anatomy)";i:1;N;}i:2;i:4768;}i:100;a:3:{i:0;s:5:"cdata";i:1;a:1:{i:0;s:1:" ";}i:2;i:4815;}i:101;a:3:{i:0;s:9:"linebreak";i:1;a:0:{}i:2;i:4816;}i:102;a:3:{i:0;s:5:"cdata";i:1;a:1:{i:0;s:1:"
";}i:2;i:4818;}i:103;a:3:{i:0;s:12:"externallink";i:1;a:2:{i:0;s:35:"http://clearvieweye.net/blog/?p=829";i:1;N;}i:2;i:4819;}i:104;a:3:{i:0;s:9:"linebreak";i:1;a:0:{}i:2;i:4858;}i:105;a:3:{i:0;s:5:"cdata";i:1;a:1:{i:0;s:1:"
";}i:2;i:4860;}i:106;a:3:{i:0;s:12:"externallink";i:1;a:2:{i:0;s:50:"http://drauziovarella.com.br/corpo-humano/esclera/";i:1;N;}i:2;i:4861;}i:107;a:3:{i:0;s:9:"linebreak";i:1;a:0:{}i:2;i:4915;}i:108;a:3:{i:0;s:5:"cdata";i:1;a:1:{i:0;s:1:"
";}i:2;i:4917;}i:109;a:3:{i:0;s:12:"externallink";i:1;a:2:{i:0;s:48:"http://www.laboratoriorigor.com.br/anatomia.html";i:1;N;}i:2;i:4918;}i:110;a:3:{i:0;s:9:"linebreak";i:1;a:0:{}i:2;i:4970;}i:111;a:3:{i:0;s:5:"cdata";i:1;a:1:{i:0;s:1:"
";}i:2;i:4972;}i:112;a:3:{i:0;s:12:"externallink";i:1;a:2:{i:0;s:44:"http://en.wikipedia.org/wiki/Vitreous_humour";i:1;N;}i:2;i:4973;}i:113;a:3:{i:0;s:5:"cdata";i:1;a:1:{i:0;s:1:" ";}i:2;i:5021;}i:114;a:3:{i:0;s:9:"linebreak";i:1;a:0:{}i:2;i:5022;}i:115;a:3:{i:0;s:5:"cdata";i:1;a:1:{i:0;s:1:"
";}i:2;i:5024;}i:116;a:3:{i:0;s:12:"externallink";i:1;a:2:{i:0;s:49:"http://www.eyes.com/eye-anatomy-optic-nerve.html/";i:1;N;}i:2;i:5025;}i:117;a:3:{i:0;s:5:"cdata";i:1;a:1:{i:0;s:0:"";}i:2;i:5078;}i:118;a:3:{i:0;s:7:"p_close";i:1;a:0:{}i:2;i:5078;}i:119;a:3:{i:0;s:13:"section_close";i:1;a:0:{}i:2;i:5078;}i:120;a:3:{i:0;s:12:"document_end";i:1;a:0:{}i:2;i:5078;}}