a:81:{i:0;a:3:{i:0;s:14:"document_start";i:1;a:0:{}i:2;i:0;}i:1;a:3:{i:0;s:6:"header";i:1;a:3:{i:0;s:10:"Estrabismo";i:1;i:1;i:2;i:1;}i:2;i:1;}i:2;a:3:{i:0;s:12:"section_open";i:1;a:1:{i:0;i:1;}i:2;i:1;}i:3;a:3:{i:0;s:6:"p_open";i:1;a:0:{}i:2;i:1;}i:4;a:3:{i:0;s:13:"internalmedia";i:1;a:7:{i:0;s:15:":estrabismo.jpg";i:1;s:0:"";i:2;s:5:"right";i:3;s:3:"300";i:4;N;i:5;s:5:"cache";i:6;s:7:"details";}i:2;i:26;}i:5;a:3:{i:0;s:5:"cdata";i:1;a:1:{i:0;s:628:"
O estrabismo é um distúrbio que afeta o paralelismo entre os dois olhos, fazendo com que eles apontem para direções diferentes. Existem três formas de estrabismo, convergente (esotropia) – quando um ou ambos os olhos se movem para dentro; divergente (exotropia) - quando um ou os dois olhos se deslocam para fora; e vertical (hipertropia) – quando o deslocamento ocorre para baixo ou para cima. 
O estrabismo pode surgir nos primeiros meses de vida, nas crianças maiores e nos adultos por diferentes razões. Até os primeiros meses de idade, a falta de controle do movimento dos olhos não caracteriza a alteração.";}i:2;i:51;}i:6;a:3:{i:0;s:7:"p_close";i:1;a:0:{}i:2;i:679;}i:7;a:3:{i:0;s:13:"section_close";i:1;a:0:{}i:2;i:681;}i:8;a:3:{i:0;s:6:"header";i:1;a:3:{i:0;s:5:"Tipos";i:1;i:3;i:2;i:681;}i:2;i:681;}i:9;a:3:{i:0;s:12:"section_open";i:1;a:1:{i:0;i:3;}i:2;i:681;}i:10;a:3:{i:0;s:2:"hr";i:1;a:0:{}i:2;i:696;}i:11;a:3:{i:0;s:6:"p_open";i:1;a:0:{}i:2;i:696;}i:12;a:3:{i:0;s:5:"cdata";i:1;a:1:{i:0;s:50:"O estrabismo pode apresentar-se de três maneiras:";}i:2;i:702;}i:13;a:3:{i:0;s:7:"p_close";i:1;a:0:{}i:2;i:752;}i:14;a:3:{i:0;s:10:"listu_open";i:1;a:0:{}i:2;i:752;}i:15;a:3:{i:0;s:13:"listitem_open";i:1;a:1:{i:0;i:1;}i:2;i:752;}i:16;a:3:{i:0;s:16:"listcontent_open";i:1;a:0:{}i:2;i:752;}i:17;a:3:{i:0;s:5:"cdata";i:1;a:1:{i:0;s:1:" ";}i:2;i:756;}i:18;a:3:{i:0;s:11:"strong_open";i:1;a:0:{}i:2;i:757;}i:19;a:3:{i:0;s:5:"cdata";i:1;a:1:{i:0;s:13:"Concomitantes";}i:2;i:759;}i:20;a:3:{i:0;s:12:"strong_close";i:1;a:0:{}i:2;i:772;}i:21;a:3:{i:0;s:5:"cdata";i:1;a:1:{i:0;s:171:": O desvio dos olhos é permanentemente observado. Pode ser monocular – quando apenas um olho se desvia – ou alternado – quando ora um olho se desvia ora outro olho.";}i:2;i:774;}i:22;a:3:{i:0;s:17:"listcontent_close";i:1;a:0:{}i:2;i:945;}i:23;a:3:{i:0;s:14:"listitem_close";i:1;a:0:{}i:2;i:945;}i:24;a:3:{i:0;s:13:"listitem_open";i:1;a:1:{i:0;i:1;}i:2;i:945;}i:25;a:3:{i:0;s:16:"listcontent_open";i:1;a:0:{}i:2;i:945;}i:26;a:3:{i:0;s:5:"cdata";i:1;a:1:{i:0;s:1:" ";}i:2;i:949;}i:27;a:3:{i:0;s:11:"strong_open";i:1;a:0:{}i:2;i:950;}i:28;a:3:{i:0;s:5:"cdata";i:1;a:1:{i:0;s:13:"Intermitentes";}i:2;i:952;}i:29;a:3:{i:0;s:12:"strong_close";i:1;a:0:{}i:2;i:965;}i:30;a:3:{i:0;s:5:"cdata";i:1;a:1:{i:0;s:78:": O desvio não é continuo, ora os olhos estão alinhados e ora há o desvio.";}i:2;i:967;}i:31;a:3:{i:0;s:17:"listcontent_close";i:1;a:0:{}i:2;i:1045;}i:32;a:3:{i:0;s:14:"listitem_close";i:1;a:0:{}i:2;i:1045;}i:33;a:3:{i:0;s:13:"listitem_open";i:1;a:1:{i:0;i:1;}i:2;i:1045;}i:34;a:3:{i:0;s:16:"listcontent_open";i:1;a:0:{}i:2;i:1045;}i:35;a:3:{i:0;s:5:"cdata";i:1;a:1:{i:0;s:1:" ";}i:2;i:1049;}i:36;a:3:{i:0;s:11:"strong_open";i:1;a:0:{}i:2;i:1050;}i:37;a:3:{i:0;s:5:"cdata";i:1;a:1:{i:0;s:8:"Latentes";}i:2;i:1052;}i:38;a:3:{i:0;s:12:"strong_close";i:1;a:0:{}i:2;i:1060;}i:39;a:3:{i:0;s:5:"cdata";i:1;a:1:{i:0;s:94:": Quando a perda de alinhamento só fica visível sob certas condições, como em fotografias.";}i:2;i:1062;}i:40;a:3:{i:0;s:17:"listcontent_close";i:1;a:0:{}i:2;i:1156;}i:41;a:3:{i:0;s:14:"listitem_close";i:1;a:0:{}i:2;i:1156;}i:42;a:3:{i:0;s:11:"listu_close";i:1;a:0:{}i:2;i:1156;}i:43;a:3:{i:0;s:13:"section_close";i:1;a:0:{}i:2;i:1158;}i:44;a:3:{i:0;s:6:"header";i:1;a:3:{i:0;s:6:"Causas";i:1;i:3;i:2;i:1158;}i:2;i:1158;}i:45;a:3:{i:0;s:12:"section_open";i:1;a:1:{i:0;i:3;}i:2;i:1158;}i:46;a:3:{i:0;s:2:"hr";i:1;a:0:{}i:2;i:1174;}i:47;a:3:{i:0;s:6:"p_open";i:1;a:0:{}i:2;i:1174;}i:48;a:3:{i:0;s:5:"cdata";i:1;a:1:{i:0;s:843:"O movimento dos olhos é controlado por seis pares de músculos comandados pelos nervos cranianos que, por sua vez, estão conectados ao sistema nervoso central. Esses músculos precisam agir em perfeito equilíbrio e sincronia para que os olhos permaneçam alinhados.
Entretanto, alguns fatores podem comprometer esse funcionamento harmônico e provocar o estrabismo. Entre as causas prováveis, destacam-se: dificuldade motora para coordenar o movimento dos dois olhos; grau elevado de hipermetropia, que obriga forçar a aproximação dos olhos para compensar a dificuldade de visão (endotropia acomodativa); baixa visão em um dos olhos; doenças neurológicas (AVC, paralisia cerebral, traumas), genéticas (síndrome de Down), oculares (catarata congênita), infecciosas (meningite, encefalite), da tireoide, diabetes e hereditariedade.";}i:2;i:1180;}i:49;a:3:{i:0;s:7:"p_close";i:1;a:0:{}i:2;i:2023;}i:50;a:3:{i:0;s:13:"section_close";i:1;a:0:{}i:2;i:2025;}i:51;a:3:{i:0;s:6:"header";i:1;a:3:{i:0;s:8:"Sintomas";i:1;i:3;i:2;i:2025;}i:2;i:2025;}i:52;a:3:{i:0;s:12:"section_open";i:1;a:1:{i:0;i:3;}i:2;i:2025;}i:53;a:3:{i:0;s:2:"hr";i:1;a:0:{}i:2;i:2043;}i:54;a:3:{i:0;s:6:"p_open";i:1;a:0:{}i:2;i:2043;}i:55;a:3:{i:0;s:5:"cdata";i:1;a:1:{i:0;s:576:"Os sinais do estrabismo variam de acordo com a idade em que a alteração se manifesta. Como a visão se desenvolve fundamentalmente nos seis primeiros anos de vida, tal período é um período de plasticidade sensorial. Então, se o estrabismo aparece na infância, não desenvolve a chamada visão dupla.
Para adultos e crianças maiores que desenvolvem o estrabismo, a visão dupla é presente, sendo uma das principais queixas, bem como dor de cabeça e torcicolo (já que o estrábico tende a inclinar a cabeça na direção do olho não desalinhado para enxergar melhor.";}i:2;i:2049;}i:56;a:3:{i:0;s:7:"p_close";i:1;a:0:{}i:2;i:2625;}i:57;a:3:{i:0;s:13:"section_close";i:1;a:0:{}i:2;i:2627;}i:58;a:3:{i:0;s:6:"header";i:1;a:3:{i:0;s:10:"Tratamento";i:1;i:3;i:2;i:2627;}i:2;i:2627;}i:59;a:3:{i:0;s:12:"section_open";i:1;a:1:{i:0;i:3;}i:2;i:2627;}i:60;a:3:{i:0;s:2:"hr";i:1;a:0:{}i:2;i:2647;}i:61;a:3:{i:0;s:6:"p_open";i:1;a:0:{}i:2;i:2647;}i:62;a:3:{i:0;s:5:"cdata";i:1;a:1:{i:0;s:868:"O tratamento do estrabismo começa pela correção das causas que provocaram o distúrbio. Quanto antes for instituído, melhores e mais rápidos serão os resultados. As medidas terapêuticas têm por objetivo principal corrigir os problemas visuais e incluem aplicação de colírios, uso de óculos, exercícios ortóticos para o fortalecimento dos músculos, tamponamento do olho com visão normal para estimular o outro com deficiência, especialmente nos casos de ampliopia, conhecidos popularmente como olho preguiçoso.
A cirurgia só é recomendada quando o desvio se mantém depois de corrigido o distúrbio que comprometia a visão. O tamanho do desvio é que determina se os músculos de apenas um ou dos dois olhos devem ser operados.
Em alguns casos selecionados, a aplicação de toxina botulinica representa uma alternativa para a correção do desvio.";}i:2;i:2653;}i:63;a:3:{i:0;s:7:"p_close";i:1;a:0:{}i:2;i:3521;}i:64;a:3:{i:0;s:13:"section_close";i:1;a:0:{}i:2;i:3523;}i:65;a:3:{i:0;s:6:"header";i:1;a:3:{i:0;s:11:"Referência";i:1;i:3;i:2;i:3523;}i:2;i:3523;}i:66;a:3:{i:0;s:12:"section_open";i:1;a:1:{i:0;i:3;}i:2;i:3523;}i:67;a:3:{i:0;s:2:"hr";i:1;a:0:{}i:2;i:3544;}i:68;a:3:{i:0;s:6:"p_open";i:1;a:0:{}i:2;i:3544;}i:69;a:3:{i:0;s:12:"externallink";i:1;a:2:{i:0;s:42:"http://www.webmd.com/eye-health/strabismus";i:1;N;}i:2;i:3550;}i:70;a:3:{i:0;s:9:"linebreak";i:1;a:0:{}i:2;i:3596;}i:71;a:3:{i:0;s:5:"cdata";i:1;a:1:{i:0;s:1:"
";}i:2;i:3598;}i:72;a:3:{i:0;s:12:"externallink";i:1;a:2:{i:0;s:49:"http://drauziovarella.com.br/letras/e/estrabismo/";i:1;N;}i:2;i:3599;}i:73;a:3:{i:0;s:9:"linebreak";i:1;a:0:{}i:2;i:3652;}i:74;a:3:{i:0;s:5:"cdata";i:1;a:1:{i:0;s:1:"
";}i:2;i:3654;}i:75;a:3:{i:0;s:12:"externallink";i:1;a:2:{i:0;s:39:"http://en.wikipedia.org/wiki/Strabismus";i:1;N;}i:2;i:3655;}i:76;a:3:{i:0;s:9:"linebreak";i:1;a:0:{}i:2;i:3698;}i:77;a:3:{i:0;s:5:"cdata";i:1;a:1:{i:0;s:0:"";}i:2;i:3700;}i:78;a:3:{i:0;s:7:"p_close";i:1;a:0:{}i:2;i:3700;}i:79;a:3:{i:0;s:13:"section_close";i:1;a:0:{}i:2;i:3700;}i:80;a:3:{i:0;s:12:"document_end";i:1;a:0:{}i:2;i:3700;}}