a:246:{i:0;a:3:{i:0;s:14:"document_start";i:1;a:0:{}i:2;i:0;}i:1;a:3:{i:0;s:6:"header";i:1;a:3:{i:0;s:10:"Daltonismo";i:1;i:1;i:2;i:1;}i:2;i:1;}i:2;a:3:{i:0;s:12:"section_open";i:1;a:1:{i:0;i:1;}i:2;i:1;}i:3;a:3:{i:0;s:2:"hr";i:1;a:0:{}i:2;i:26;}i:4;a:3:{i:0;s:6:"p_open";i:1;a:0:{}i:2;i:26;}i:5;a:3:{i:0;s:13:"internalmedia";i:1;a:7:{i:0;s:15:":daltonismo.jpg";i:1;s:0:"";i:2;s:5:"right";i:3;s:3:"250";i:4;N;i:5;s:5:"cache";i:6;s:7:"details";}i:2;i:32;}i:6;a:3:{i:0;s:5:"cdata";i:1;a:1:{i:0;s:790:"
O daltonismo (também chamado de discromatopsia ou discromopsia) é uma perturbação da percepção visual caracterizada pela incapacidade de diferenciar determinadas cores. Esta perturbação tem normalmente origem genética, mas pode também resultar de lesão nos órgãos responsáveis pela visão, ou lesão de origem neurológica. 
Como o daltonismo esta geneticamente ligado ao cromossomo X, ocorre com maior frequência entre os homens, que 
possuem apenas um cromossomo X, enquanto as mulheres possuem dois.
Os daltônicos apresentam dificuldade na percepção de determinadas cores primárias, como o verde e o vermelho, o que se repercute na percepção das restantes cores do espectro de cores.
Os mais comuns tipos de daltonismo são: deuteranomalia, protanopia e tritanopia.";}i:2;i:57;}i:7;a:3:{i:0;s:7:"p_close";i:1;a:0:{}i:2;i:847;}i:8;a:3:{i:0;s:13:"section_close";i:1;a:0:{}i:2;i:850;}i:9;a:3:{i:0;s:6:"header";i:1;a:3:{i:0;s:5:"Causa";i:1;i:3;i:2;i:850;}i:2;i:850;}i:10;a:3:{i:0;s:12:"section_open";i:1;a:1:{i:0;i:3;}i:2;i:850;}i:11;a:3:{i:0;s:2:"hr";i:1;a:0:{}i:2;i:863;}i:12;a:3:{i:0;s:6:"p_open";i:1;a:0:{}i:2;i:863;}i:13;a:3:{i:0;s:5:"cdata";i:1;a:1:{i:0;s:898:"Geralmente o daltonismo tem origem genética (hereditário). O gene responsável pela condição é ligada ao cromossomo X, fazendo com que homens (que possuem apenas um cromossomo X) tenham maior incidência de daltonismo. O daltonismo hereditário tem condição estável durante toda a vida, não ficando pior ou melhor.
Tem-se também o daltonismo adquirido através de doenças crônicas como Alzheimer, diabetes melito, glaucoma, leucemia, alcoolismo, esclerose múltipla, Parkinson, bem como através de acidentes que afetam a retina ou áreas do cérebro responsáveis pela visão. Diferentemente do daltonismo de origem hereditária, o daltonismo adquirido pode variar com o tempo, podendo piorar ou estabilizar.
Estudos sobre a exata causa física do daltonismo ainda estão sendo feitos, porém acredita-se que o daltonismo é causado pela falta de cones (receptores de cores da retina).";}i:2;i:869;}i:14;a:3:{i:0;s:7:"p_close";i:1;a:0:{}i:2;i:1767;}i:15;a:3:{i:0;s:13:"section_close";i:1;a:0:{}i:2;i:1769;}i:16;a:3:{i:0;s:6:"header";i:1;a:3:{i:0;s:19:"Tipos de daltonismo";i:1;i:3;i:2;i:1769;}i:2;i:1769;}i:17;a:3:{i:0;s:12:"section_open";i:1;a:1:{i:0;i:3;}i:2;i:1769;}i:18;a:3:{i:0;s:2:"hr";i:1;a:0:{}i:2;i:1796;}i:19;a:3:{i:0;s:6:"p_open";i:1;a:0:{}i:2;i:1796;}i:20;a:3:{i:0;s:5:"cdata";i:1;a:1:{i:0;s:93:"Existem três grupos de discromatopsias: monocromacias, dicromacias e tricromacias anómalas.";}i:2;i:1802;}i:21;a:3:{i:0;s:7:"p_close";i:1;a:0:{}i:2;i:1895;}i:22;a:3:{i:0;s:6:"p_open";i:1;a:0:{}i:2;i:1895;}i:23;a:3:{i:0;s:11:"strong_open";i:1;a:0:{}i:2;i:1897;}i:24;a:3:{i:0;s:5:"cdata";i:1;a:1:{i:0;s:12:"Monocromacia";}i:2;i:1899;}i:25;a:3:{i:0;s:12:"strong_close";i:1;a:0:{}i:2;i:1911;}i:26;a:3:{i:0;s:5:"cdata";i:1;a:1:{i:0;s:52:" ocorre quando não há nenhuma recepção de cores.";}i:2;i:1913;}i:27;a:3:{i:0;s:7:"p_close";i:1;a:0:{}i:2;i:1965;}i:28;a:3:{i:0;s:10:"listu_open";i:1;a:0:{}i:2;i:1965;}i:29;a:3:{i:0;s:13:"listitem_open";i:1;a:1:{i:0;i:1;}i:2;i:1965;}i:30;a:3:{i:0;s:16:"listcontent_open";i:1;a:0:{}i:2;i:1965;}i:31;a:3:{i:0;s:5:"cdata";i:1;a:1:{i:0;s:364:" O monocromata típico é caracterizado pelo monocromatismo de bastonetes, que corresponde a uma discriminação de cores nulas pela falta de cones. Ocorre na população humana com uma incidência de 0,003% nos homens e de 0,002% nas mulheres. Essa característica é frequente em animais, como aqueles de hábitos noturnos, peixes abissais, cachorros e pinguins.";}i:2;i:1969;}i:32;a:3:{i:0;s:17:"listcontent_close";i:1;a:0:{}i:2;i:2333;}i:33;a:3:{i:0;s:14:"listitem_close";i:1;a:0:{}i:2;i:2333;}i:34;a:3:{i:0;s:11:"listu_close";i:1;a:0:{}i:2;i:2333;}i:35;a:3:{i:0;s:6:"p_open";i:1;a:0:{}i:2;i:2333;}i:36;a:3:{i:0;s:5:"cdata";i:1;a:1:{i:0;s:2:"A ";}i:2;i:2335;}i:37;a:3:{i:0;s:11:"strong_open";i:1;a:0:{}i:2;i:2337;}i:38;a:3:{i:0;s:5:"cdata";i:1;a:1:{i:0;s:10:"dicromacia";}i:2;i:2339;}i:39;a:3:{i:0;s:12:"strong_close";i:1;a:0:{}i:2;i:2349;}i:40;a:3:{i:0;s:5:"cdata";i:1;a:1:{i:0;s:94:", que resulta da ausência de um tipo específico de cones, pode apresentar-se sob a forma de:";}i:2;i:2351;}i:41;a:3:{i:0;s:7:"p_close";i:1;a:0:{}i:2;i:2445;}i:42;a:3:{i:0;s:10:"listu_open";i:1;a:0:{}i:2;i:2445;}i:43;a:3:{i:0;s:13:"listitem_open";i:1;a:1:{i:0;i:1;}i:2;i:2445;}i:44;a:3:{i:0;s:16:"listcontent_open";i:1;a:0:{}i:2;i:2445;}i:45;a:3:{i:0;s:5:"cdata";i:1;a:1:{i:0;s:53:" protanopia, em que há ausência na retina de cones ";}i:2;i:2449;}i:46;a:3:{i:0;s:18:"doublequoteopening";i:1;a:0:{}i:2;i:2502;}i:47;a:3:{i:0;s:5:"cdata";i:1;a:1:{i:0;s:9:"vermelhos";}i:2;i:2503;}i:48;a:3:{i:0;s:18:"doublequoteclosing";i:1;a:0:{}i:2;i:2512;}i:49;a:3:{i:0;s:5:"cdata";i:1;a:1:{i:0;s:181:", resultando na impossibilidade de discriminar cores no segmento verde-amarelo-vermelho do espectro. Há igualmente menor sensibilidade à luz na parte do espectro acima do laranja.";}i:2;i:2513;}i:50;a:3:{i:0;s:17:"listcontent_close";i:1;a:0:{}i:2;i:2694;}i:51;a:3:{i:0;s:14:"listitem_close";i:1;a:0:{}i:2;i:2694;}i:52;a:3:{i:0;s:13:"listitem_open";i:1;a:1:{i:0;i:1;}i:2;i:2694;}i:53;a:3:{i:0;s:16:"listcontent_open";i:1;a:0:{}i:2;i:2694;}i:54;a:3:{i:0;s:5:"cdata";i:1;a:1:{i:0;s:45:" deuteranopia, em que há ausência de cones ";}i:2;i:2698;}i:55;a:3:{i:0;s:18:"doublequoteopening";i:1;a:0:{}i:2;i:2743;}i:56;a:3:{i:0;s:5:"cdata";i:1;a:1:{i:0;s:6:"verdes";}i:2;i:2744;}i:57;a:3:{i:0;s:18:"doublequoteclosing";i:1;a:0:{}i:2;i:2750;}i:58;a:3:{i:0;s:5:"cdata";i:1;a:1:{i:0;s:149:", resultando, igualmente, na impossibilidade de discriminar cores no segmento verde-amarelo-vermelho do espectro. Trata-se da que afetou John Dalton.";}i:2;i:2751;}i:59;a:3:{i:0;s:17:"listcontent_close";i:1;a:0:{}i:2;i:2900;}i:60;a:3:{i:0;s:14:"listitem_close";i:1;a:0:{}i:2;i:2900;}i:61;a:3:{i:0;s:13:"listitem_open";i:1;a:1:{i:0;i:1;}i:2;i:2900;}i:62;a:3:{i:0;s:16:"listcontent_open";i:1;a:0:{}i:2;i:2900;}i:63;a:3:{i:0;s:5:"cdata";i:1;a:1:{i:0;s:43:" tritanopia, em que há ausência de cones ";}i:2;i:2904;}i:64;a:3:{i:0;s:18:"doublequoteopening";i:1;a:0:{}i:2;i:2947;}i:65;a:3:{i:0;s:5:"cdata";i:1;a:1:{i:0;s:5:"azuis";}i:2;i:2948;}i:66;a:3:{i:0;s:18:"doublequoteclosing";i:1;a:0:{}i:2;i:2953;}i:67;a:3:{i:0;s:5:"cdata";i:1;a:1:{i:0;s:99:" ou de comprimento de onda curta, resultando na impossibilidade de ver cores na faixa azul-amarelo.";}i:2;i:2954;}i:68;a:3:{i:0;s:17:"listcontent_close";i:1;a:0:{}i:2;i:3053;}i:69;a:3:{i:0;s:14:"listitem_close";i:1;a:0:{}i:2;i:3053;}i:70;a:3:{i:0;s:11:"listu_close";i:1;a:0:{}i:2;i:3053;}i:71;a:3:{i:0;s:6:"p_open";i:1;a:0:{}i:2;i:3053;}i:72;a:3:{i:0;s:5:"cdata";i:1;a:1:{i:0;s:2:"A ";}i:2;i:3055;}i:73;a:3:{i:0;s:11:"strong_open";i:1;a:0:{}i:2;i:3057;}i:74;a:3:{i:0;s:5:"cdata";i:1;a:1:{i:0;s:20:"tricromacia anómala";}i:2;i:3059;}i:75;a:3:{i:0;s:12:"strong_close";i:1;a:0:{}i:2;i:3079;}i:76;a:3:{i:0;s:5:"cdata";i:1;a:1:{i:0;s:124:" resulta de uma mutação no pigmento dos fotorreceptores dos cones retinianos, e manifesta-se em três anomalias distintas:";}i:2;i:3081;}i:77;a:3:{i:0;s:7:"p_close";i:1;a:0:{}i:2;i:3205;}i:78;a:3:{i:0;s:10:"listu_open";i:1;a:0:{}i:2;i:3205;}i:79;a:3:{i:0;s:13:"listitem_open";i:1;a:1:{i:0;i:1;}i:2;i:3205;}i:80;a:3:{i:0;s:16:"listcontent_open";i:1;a:0:{}i:2;i:3205;}i:81;a:3:{i:0;s:5:"cdata";i:1;a:1:{i:0;s:94:" protanomalia, presença de uma mutação do pigmento sensível às frequências mais baixas (";}i:2;i:3209;}i:82;a:3:{i:0;s:18:"doublequoteopening";i:1;a:0:{}i:2;i:3303;}i:83;a:3:{i:0;s:5:"cdata";i:1;a:1:{i:0;s:15:"cones vermelhos";}i:2;i:3304;}i:84;a:3:{i:0;s:18:"doublequoteclosing";i:1;a:0:{}i:2;i:3319;}i:85;a:3:{i:0;s:5:"cdata";i:1;a:1:{i:0;s:166:"). Resulta numa menor sensibilidade ao vermelho e num escurecimento das cores perto das frequências mais longas (que pode levar à confusão entre vermelho e preto).";}i:2;i:3320;}i:86;a:3:{i:0;s:17:"listcontent_close";i:1;a:0:{}i:2;i:3486;}i:87;a:3:{i:0;s:14:"listitem_close";i:1;a:0:{}i:2;i:3486;}i:88;a:3:{i:0;s:13:"listitem_open";i:1;a:1:{i:0;i:1;}i:2;i:3486;}i:89;a:3:{i:0;s:16:"listcontent_open";i:1;a:0:{}i:2;i:3486;}i:90;a:3:{i:0;s:5:"cdata";i:1;a:1:{i:0;s:97:" deuteranomalia, presença de uma mutação do pigmento sensível às frequências intermédias (";}i:2;i:3490;}i:91;a:3:{i:0;s:18:"doublequoteopening";i:1;a:0:{}i:2;i:3587;}i:92;a:3:{i:0;s:5:"cdata";i:1;a:1:{i:0;s:12:"cones verdes";}i:2;i:3588;}i:93;a:3:{i:0;s:18:"doublequoteclosing";i:1;a:0:{}i:2;i:3600;}i:94;a:3:{i:0;s:5:"cdata";i:1;a:1:{i:0;s:142:"). Resulta numa maior dificuldade em discriminar o verde. É o mais comum dos casos, responsável por cerca de metade dos casos de daltonismo.";}i:2;i:3601;}i:95;a:3:{i:0;s:17:"listcontent_close";i:1;a:0:{}i:2;i:3743;}i:96;a:3:{i:0;s:14:"listitem_close";i:1;a:0:{}i:2;i:3743;}i:97;a:3:{i:0;s:13:"listitem_open";i:1;a:1:{i:0;i:1;}i:2;i:3743;}i:98;a:3:{i:0;s:16:"listcontent_open";i:1;a:0:{}i:2;i:3743;}i:99;a:3:{i:0;s:5:"cdata";i:1;a:1:{i:0;s:90:" tritanomalia, presença de uma mutação do pigmento sensível às frequências maiores (";}i:2;i:3747;}i:100;a:3:{i:0;s:18:"doublequoteopening";i:1;a:0:{}i:2;i:3837;}i:101;a:3:{i:0;s:5:"cdata";i:1;a:1:{i:0;s:11:"cones azuis";}i:2;i:3838;}i:102;a:3:{i:0;s:18:"doublequoteclosing";i:1;a:0:{}i:2;i:3849;}i:103;a:3:{i:0;s:5:"cdata";i:1;a:1:{i:0;s:159:"). Forma mais rara de todas – atingindo cerca de 0,0001% da população – a tritanomalia impossibilita a discriminação de cores na faixa do azul-amarelo.";}i:2;i:3850;}i:104;a:3:{i:0;s:17:"listcontent_close";i:1;a:0:{}i:2;i:4009;}i:105;a:3:{i:0;s:14:"listitem_close";i:1;a:0:{}i:2;i:4009;}i:106;a:3:{i:0;s:11:"listu_close";i:1;a:0:{}i:2;i:4009;}i:107;a:3:{i:0;s:13:"section_close";i:1;a:0:{}i:2;i:4011;}i:108;a:3:{i:0;s:6:"header";i:1;a:3:{i:0;s:12:"Diagnóstico";i:1;i:3;i:2;i:4011;}i:2;i:4011;}i:109;a:3:{i:0;s:12:"section_open";i:1;a:1:{i:0;i:3;}i:2;i:4011;}i:110;a:3:{i:0;s:2:"hr";i:1;a:0:{}i:2;i:4032;}i:111;a:3:{i:0;s:6:"p_open";i:1;a:0:{}i:2;i:4032;}i:112;a:3:{i:0;s:5:"cdata";i:1;a:1:{i:0;s:713:"O daltonismo pode ser difícil de detectar, principalmente na infância, uma vez que a criança não é capaz de detectar alguma perturbação na visão, pois seus pais dizem que determinado objeto é vermelho e a criança associa “vermelho” com a cor que ela realmente enxerga. Por isso, aconselha-se exames de vista rotineiros em crianças para detectar ametropias como miopia, hipermetropia, e também o daltonismo.
Existem vários métodos de identificar o daltonismo, um dos mais conhecidos é o teste de cores de Ishihara, que consiste na exibição de uma série de cartões coloridos que utilizam de pequenas variações de cores para exibir números, que são imperceptíveis para os daltônicos. Em ";}i:2;i:4038;}i:113;a:3:{i:0;s:12:"externallink";i:1;a:2:{i:0;s:29:"http://bit.ly/testedaltonismo";i:1;N;}i:2;i:4751;}i:114;a:3:{i:0;s:5:"cdata";i:1;a:1:{i:0;s:169:" consegue-se fazer o teste online (Atenção: não utilize como parecer definitivo, apenas oftalmologistas especializados podem determinar com precisão o diagnóstico).";}i:2;i:4780;}i:115;a:3:{i:0;s:7:"p_close";i:1;a:0:{}i:2;i:4949;}i:116;a:3:{i:0;s:13:"section_close";i:1;a:0:{}i:2;i:4951;}i:117;a:3:{i:0;s:6:"header";i:1;a:3:{i:0;s:10:"Tratamento";i:1;i:3;i:2;i:4951;}i:2;i:4951;}i:118;a:3:{i:0;s:12:"section_open";i:1;a:1:{i:0;i:3;}i:2;i:4951;}i:119;a:3:{i:0;s:2:"hr";i:1;a:0:{}i:2;i:4969;}i:120;a:3:{i:0;s:6:"p_open";i:1;a:0:{}i:2;i:4969;}i:121;a:3:{i:0;s:5:"cdata";i:1;a:1:{i:0;s:263:"Atualmente não existe nenhum tipo de tratamento conhecido para quem possuí o daltonismo hereditariamente. Para aqueles que adquiriram daltonismo devido a danos causado à retina ou ao cérebro é possível reverter o quadro através de tratamentos ou cirurgias.";}i:2;i:4975;}i:122;a:3:{i:0;s:7:"p_close";i:1;a:0:{}i:2;i:5238;}i:123;a:3:{i:0;s:13:"section_close";i:1;a:0:{}i:2;i:5240;}i:124;a:3:{i:0;s:6:"header";i:1;a:3:{i:0;s:13:"Estatísticas";i:1;i:3;i:2;i:5240;}i:2;i:5240;}i:125;a:3:{i:0;s:12:"section_open";i:1;a:1:{i:0;i:3;}i:2;i:5240;}i:126;a:3:{i:0;s:2:"hr";i:1;a:0:{}i:2;i:5261;}i:127;a:3:{i:0;s:10:"table_open";i:1;a:3:{i:0;i:3;i:1;i:9;i:2;i:5268;}i:2;i:5267;}i:128;a:3:{i:0;s:15:"tablethead_open";i:1;a:0:{}i:2;i:5267;}i:129;a:3:{i:0;s:13:"tablerow_open";i:1;a:0:{}i:2;i:5267;}i:130;a:3:{i:0;s:16:"tableheader_open";i:1;a:3:{i:0;i:1;i:1;s:4:"left";i:2;i:1;}i:2;i:5267;}i:131;a:3:{i:0;s:5:"cdata";i:1;a:1:{i:0;s:17:"                 ";}i:2;i:5269;}i:132;a:3:{i:0;s:17:"tableheader_close";i:1;a:0:{}i:2;i:5286;}i:133;a:3:{i:0;s:16:"tableheader_open";i:1;a:3:{i:0;i:1;i:1;s:4:"left";i:2;i:1;}i:2;i:5286;}i:134;a:3:{i:0;s:5:"cdata";i:1;a:1:{i:0;s:15:" Homens        ";}i:2;i:5287;}i:135;a:3:{i:0;s:17:"tableheader_close";i:1;a:0:{}i:2;i:5302;}i:136;a:3:{i:0;s:16:"tableheader_open";i:1;a:3:{i:0;i:1;i:1;s:4:"left";i:2;i:1;}i:2;i:5302;}i:137;a:3:{i:0;s:5:"cdata";i:1;a:1:{i:0;s:19:" Mulheres          ";}i:2;i:5303;}i:138;a:3:{i:0;s:17:"tableheader_close";i:1;a:0:{}i:2;i:5322;}i:139;a:3:{i:0;s:14:"tablerow_close";i:1;a:0:{}i:2;i:5323;}i:140;a:3:{i:0;s:16:"tablethead_close";i:1;a:0:{}i:2;i:5323;}i:141;a:3:{i:0;s:13:"tablerow_open";i:1;a:0:{}i:2;i:5323;}i:142;a:3:{i:0;s:14:"tablecell_open";i:1;a:3:{i:0;i:1;i:1;s:4:"left";i:2;i:1;}i:2;i:5323;}i:143;a:3:{i:0;s:5:"cdata";i:1;a:1:{i:0;s:11:"Dicromacia	";}i:2;i:5325;}i:144;a:3:{i:0;s:15:"tablecell_close";i:1;a:0:{}i:2;i:5336;}i:145;a:3:{i:0;s:14:"tablecell_open";i:1;a:3:{i:0;i:1;i:1;s:4:"left";i:2;i:1;}i:2;i:5336;}i:146;a:3:{i:0;s:5:"cdata";i:1;a:1:{i:0;s:5:"2,4%	";}i:2;i:5337;}i:147;a:3:{i:0;s:15:"tablecell_close";i:1;a:0:{}i:2;i:5342;}i:148;a:3:{i:0;s:14:"tablecell_open";i:1;a:3:{i:0;i:1;i:1;N;i:2;i:1;}i:2;i:5342;}i:149;a:3:{i:0;s:5:"cdata";i:1;a:1:{i:0;s:5:"0,03%";}i:2;i:5343;}i:150;a:3:{i:0;s:15:"tablecell_close";i:1;a:0:{}i:2;i:5348;}i:151;a:3:{i:0;s:14:"tablerow_close";i:1;a:0:{}i:2;i:5349;}i:152;a:3:{i:0;s:13:"tablerow_open";i:1;a:0:{}i:2;i:5349;}i:153;a:3:{i:0;s:14:"tablecell_open";i:1;a:3:{i:0;i:1;i:1;s:4:"left";i:2;i:1;}i:2;i:5349;}i:154;a:3:{i:0;s:5:"cdata";i:1;a:1:{i:0;s:11:"Protanopia	";}i:2;i:5351;}i:155;a:3:{i:0;s:15:"tablecell_close";i:1;a:0:{}i:2;i:5362;}i:156;a:3:{i:0;s:14:"tablecell_open";i:1;a:3:{i:0;i:1;i:1;s:4:"left";i:2;i:1;}i:2;i:5362;}i:157;a:3:{i:0;s:5:"cdata";i:1;a:1:{i:0;s:5:"1,3%	";}i:2;i:5363;}i:158;a:3:{i:0;s:15:"tablecell_close";i:1;a:0:{}i:2;i:5368;}i:159;a:3:{i:0;s:14:"tablecell_open";i:1;a:3:{i:0;i:1;i:1;N;i:2;i:1;}i:2;i:5368;}i:160;a:3:{i:0;s:5:"cdata";i:1;a:1:{i:0;s:5:"0,02%";}i:2;i:5369;}i:161;a:3:{i:0;s:15:"tablecell_close";i:1;a:0:{}i:2;i:5374;}i:162;a:3:{i:0;s:14:"tablerow_close";i:1;a:0:{}i:2;i:5375;}i:163;a:3:{i:0;s:13:"tablerow_open";i:1;a:0:{}i:2;i:5375;}i:164;a:3:{i:0;s:14:"tablecell_open";i:1;a:3:{i:0;i:1;i:1;s:4:"left";i:2;i:1;}i:2;i:5375;}i:165;a:3:{i:0;s:5:"cdata";i:1;a:1:{i:0;s:13:"Deuteranopia	";}i:2;i:5377;}i:166;a:3:{i:0;s:15:"tablecell_close";i:1;a:0:{}i:2;i:5390;}i:167;a:3:{i:0;s:14:"tablecell_open";i:1;a:3:{i:0;i:1;i:1;s:4:"left";i:2;i:1;}i:2;i:5390;}i:168;a:3:{i:0;s:5:"cdata";i:1;a:1:{i:0;s:5:"1,2%	";}i:2;i:5391;}i:169;a:3:{i:0;s:15:"tablecell_close";i:1;a:0:{}i:2;i:5396;}i:170;a:3:{i:0;s:14:"tablecell_open";i:1;a:3:{i:0;i:1;i:1;N;i:2;i:1;}i:2;i:5396;}i:171;a:3:{i:0;s:5:"cdata";i:1;a:1:{i:0;s:5:"0,01%";}i:2;i:5397;}i:172;a:3:{i:0;s:15:"tablecell_close";i:1;a:0:{}i:2;i:5402;}i:173;a:3:{i:0;s:14:"tablerow_close";i:1;a:0:{}i:2;i:5403;}i:174;a:3:{i:0;s:13:"tablerow_open";i:1;a:0:{}i:2;i:5403;}i:175;a:3:{i:0;s:14:"tablecell_open";i:1;a:3:{i:0;i:1;i:1;s:4:"left";i:2;i:1;}i:2;i:5403;}i:176;a:3:{i:0;s:5:"cdata";i:1;a:1:{i:0;s:10:"Tritaopia	";}i:2;i:5405;}i:177;a:3:{i:0;s:15:"tablecell_close";i:1;a:0:{}i:2;i:5415;}i:178;a:3:{i:0;s:14:"tablecell_open";i:1;a:3:{i:0;i:1;i:1;s:4:"left";i:2;i:1;}i:2;i:5415;}i:179;a:3:{i:0;s:5:"cdata";i:1;a:1:{i:0;s:7:"0,001%	";}i:2;i:5416;}i:180;a:3:{i:0;s:15:"tablecell_close";i:1;a:0:{}i:2;i:5423;}i:181;a:3:{i:0;s:14:"tablecell_open";i:1;a:3:{i:0;i:1;i:1;N;i:2;i:1;}i:2;i:5423;}i:182;a:3:{i:0;s:5:"cdata";i:1;a:1:{i:0;s:6:"0,001%";}i:2;i:5424;}i:183;a:3:{i:0;s:15:"tablecell_close";i:1;a:0:{}i:2;i:5430;}i:184;a:3:{i:0;s:14:"tablerow_close";i:1;a:0:{}i:2;i:5431;}i:185;a:3:{i:0;s:13:"tablerow_open";i:1;a:0:{}i:2;i:5431;}i:186;a:3:{i:0;s:14:"tablecell_open";i:1;a:3:{i:0;i:1;i:1;s:4:"left";i:2;i:1;}i:2;i:5431;}i:187;a:3:{i:0;s:5:"cdata";i:1;a:1:{i:0;s:20:"Tricomacia Anómala	";}i:2;i:5433;}i:188;a:3:{i:0;s:15:"tablecell_close";i:1;a:0:{}i:2;i:5453;}i:189;a:3:{i:0;s:14:"tablecell_open";i:1;a:3:{i:0;i:1;i:1;s:4:"left";i:2;i:1;}i:2;i:5453;}i:190;a:3:{i:0;s:5:"cdata";i:1;a:1:{i:0;s:5:"6,3%	";}i:2;i:5454;}i:191;a:3:{i:0;s:15:"tablecell_close";i:1;a:0:{}i:2;i:5459;}i:192;a:3:{i:0;s:14:"tablecell_open";i:1;a:3:{i:0;i:1;i:1;N;i:2;i:1;}i:2;i:5459;}i:193;a:3:{i:0;s:5:"cdata";i:1;a:1:{i:0;s:5:"0,37%";}i:2;i:5460;}i:194;a:3:{i:0;s:15:"tablecell_close";i:1;a:0:{}i:2;i:5465;}i:195;a:3:{i:0;s:14:"tablerow_close";i:1;a:0:{}i:2;i:5466;}i:196;a:3:{i:0;s:13:"tablerow_open";i:1;a:0:{}i:2;i:5466;}i:197;a:3:{i:0;s:14:"tablecell_open";i:1;a:3:{i:0;i:1;i:1;s:4:"left";i:2;i:1;}i:2;i:5466;}i:198;a:3:{i:0;s:5:"cdata";i:1;a:1:{i:0;s:13:"Protanomalia	";}i:2;i:5468;}i:199;a:3:{i:0;s:15:"tablecell_close";i:1;a:0:{}i:2;i:5481;}i:200;a:3:{i:0;s:14:"tablecell_open";i:1;a:3:{i:0;i:1;i:1;s:4:"left";i:2;i:1;}i:2;i:5481;}i:201;a:3:{i:0;s:5:"cdata";i:1;a:1:{i:0;s:5:"1,3%	";}i:2;i:5482;}i:202;a:3:{i:0;s:15:"tablecell_close";i:1;a:0:{}i:2;i:5487;}i:203;a:3:{i:0;s:14:"tablecell_open";i:1;a:3:{i:0;i:1;i:1;N;i:2;i:1;}i:2;i:5487;}i:204;a:3:{i:0;s:5:"cdata";i:1;a:1:{i:0;s:5:"0,02%";}i:2;i:5488;}i:205;a:3:{i:0;s:15:"tablecell_close";i:1;a:0:{}i:2;i:5493;}i:206;a:3:{i:0;s:14:"tablerow_close";i:1;a:0:{}i:2;i:5494;}i:207;a:3:{i:0;s:13:"tablerow_open";i:1;a:0:{}i:2;i:5494;}i:208;a:3:{i:0;s:14:"tablecell_open";i:1;a:3:{i:0;i:1;i:1;s:4:"left";i:2;i:1;}i:2;i:5494;}i:209;a:3:{i:0;s:5:"cdata";i:1;a:1:{i:0;s:15:"Deuteranomalia	";}i:2;i:5496;}i:210;a:3:{i:0;s:15:"tablecell_close";i:1;a:0:{}i:2;i:5511;}i:211;a:3:{i:0;s:14:"tablecell_open";i:1;a:3:{i:0;i:1;i:1;s:4:"left";i:2;i:1;}i:2;i:5511;}i:212;a:3:{i:0;s:5:"cdata";i:1;a:1:{i:0;s:5:"5,0%	";}i:2;i:5512;}i:213;a:3:{i:0;s:15:"tablecell_close";i:1;a:0:{}i:2;i:5517;}i:214;a:3:{i:0;s:14:"tablecell_open";i:1;a:3:{i:0;i:1;i:1;N;i:2;i:1;}i:2;i:5517;}i:215;a:3:{i:0;s:5:"cdata";i:1;a:1:{i:0;s:5:"0,35%";}i:2;i:5518;}i:216;a:3:{i:0;s:15:"tablecell_close";i:1;a:0:{}i:2;i:5523;}i:217;a:3:{i:0;s:14:"tablerow_close";i:1;a:0:{}i:2;i:5524;}i:218;a:3:{i:0;s:13:"tablerow_open";i:1;a:0:{}i:2;i:5524;}i:219;a:3:{i:0;s:14:"tablecell_open";i:1;a:3:{i:0;i:1;i:1;s:4:"left";i:2;i:1;}i:2;i:5524;}i:220;a:3:{i:0;s:5:"cdata";i:1;a:1:{i:0;s:13:"Tritanomalia	";}i:2;i:5526;}i:221;a:3:{i:0;s:15:"tablecell_close";i:1;a:0:{}i:2;i:5539;}i:222;a:3:{i:0;s:14:"tablecell_open";i:1;a:3:{i:0;i:1;i:1;s:4:"left";i:2;i:1;}i:2;i:5539;}i:223;a:3:{i:0;s:5:"cdata";i:1;a:1:{i:0;s:8:"0,0001%	";}i:2;i:5540;}i:224;a:3:{i:0;s:15:"tablecell_close";i:1;a:0:{}i:2;i:5548;}i:225;a:3:{i:0;s:14:"tablecell_open";i:1;a:3:{i:0;i:1;i:1;N;i:2;i:1;}i:2;i:5548;}i:226;a:3:{i:0;s:5:"cdata";i:1;a:1:{i:0;s:7:"0,0001%";}i:2;i:5549;}i:227;a:3:{i:0;s:15:"tablecell_close";i:1;a:0:{}i:2;i:5556;}i:228;a:3:{i:0;s:14:"tablerow_close";i:1;a:0:{}i:2;i:5557;}i:229;a:3:{i:0;s:11:"table_close";i:1;a:1:{i:0;i:5557;}i:2;i:5557;}i:230;a:3:{i:0;s:13:"section_close";i:1;a:0:{}i:2;i:5560;}i:231;a:3:{i:0;s:6:"header";i:1;a:3:{i:0;s:12:"Referências";i:1;i:3;i:2;i:5560;}i:2;i:5560;}i:232;a:3:{i:0;s:12:"section_open";i:1;a:1:{i:0;i:3;}i:2;i:5560;}i:233;a:3:{i:0;s:2:"hr";i:1;a:0:{}i:2;i:5581;}i:234;a:3:{i:0;s:6:"p_open";i:1;a:0:{}i:2;i:5581;}i:235;a:3:{i:0;s:12:"externallink";i:1;a:2:{i:0;s:44:"http://en.wikipedia.org/wiki/Color_blindness";i:1;N;}i:2;i:5587;}i:236;a:3:{i:0;s:9:"linebreak";i:1;a:0:{}i:2;i:5635;}i:237;a:3:{i:0;s:5:"cdata";i:1;a:1:{i:0;s:1:"
";}i:2;i:5637;}i:238;a:3:{i:0;s:12:"externallink";i:1;a:2:{i:0;s:36:"http://www.colourblindawareness.org/";i:1;N;}i:2;i:5638;}i:239;a:3:{i:0;s:9:"linebreak";i:1;a:0:{}i:2;i:5678;}i:240;a:3:{i:0;s:5:"cdata";i:1;a:1:{i:0;s:1:"
";}i:2;i:5680;}i:241;a:3:{i:0;s:12:"externallink";i:1;a:2:{i:0;s:86:"http://www.colour-blindness.com/pt/colour-blindness-tests/ishihara-colour-test-plates/";i:1;N;}i:2;i:5681;}i:242;a:3:{i:0;s:5:"cdata";i:1;a:1:{i:0;s:0:"";}i:2;i:5771;}i:243;a:3:{i:0;s:7:"p_close";i:1;a:0:{}i:2;i:5771;}i:244;a:3:{i:0;s:13:"section_close";i:1;a:0:{}i:2;i:5771;}i:245;a:3:{i:0;s:12:"document_end";i:1;a:0:{}i:2;i:5771;}}