a:82:{i:0;a:3:{i:0;s:14:"document_start";i:1;a:0:{}i:2;i:0;}i:1;a:3:{i:0;s:6:"header";i:1;a:3:{i:0;s:22:"Descolamento de retina";i:1;i:1;i:2;i:1;}i:2;i:1;}i:2;a:3:{i:0;s:12:"section_open";i:1;a:1:{i:0;i:1;}i:2;i:1;}i:3;a:3:{i:0;s:6:"p_open";i:1;a:0:{}i:2;i:1;}i:4;a:3:{i:0;s:13:"internalmedia";i:1;a:7:{i:0;s:27:":descolamento_de_retina.jpg";i:1;s:0:"";i:2;s:5:"right";i:3;s:3:"250";i:4;N;i:5;s:5:"cache";i:6;s:7:"details";}i:2;i:38;}i:5;a:3:{i:0;s:5:"cdata";i:1;a:1:{i:0;s:522:"
Deslocamento de retina é uma enfermidade do olho caracterizada pela separação das camadas de suporte de nutrição das camadas fotossensíveis. Geralmente causa por trauma, ou por uma existência prévia de uma pequena ruptura da camada fotossensível, onde o fluido intraocular entra e força a separação das camadas.
Indolor, o deslocamento de retina pode ser percebido quando a visão começa a ficar borrada, flashes de luzes aparecem na visão periférica, e cegueira parcial em pequenas partes do campo visual.";}i:2;i:75;}i:6;a:3:{i:0;s:7:"p_close";i:1;a:0:{}i:2;i:597;}i:7;a:3:{i:0;s:13:"section_close";i:1;a:0:{}i:2;i:599;}i:8;a:3:{i:0;s:6:"header";i:1;a:3:{i:0;s:5:"Geral";i:1;i:3;i:2;i:599;}i:2;i:599;}i:9;a:3:{i:0;s:12:"section_open";i:1;a:1:{i:0;i:3;}i:2;i:599;}i:10;a:3:{i:0;s:2:"hr";i:1;a:0:{}i:2;i:614;}i:11;a:3:{i:0;s:6:"p_open";i:1;a:0:{}i:2;i:614;}i:12;a:3:{i:0;s:5:"cdata";i:1;a:1:{i:0;s:550:"A retina é uma fina membrana flexível que reveste a superfície interna da parte posterior do globo ocular. Nela existem receptores fotossensíveis que convertem a imagem vista em impulsos elétricos que serão posteriormente interpretados pelo cérebro.
A retina não possui nenhum elemento de fixação que a prenda ao globo ocular, apenas a pressão interna do vítreo garante sua posição adequada, bem como sua nutrição.
Com o deslocamento de retina, o fornecimento de nutrientes é interrompido, causando a degeneração celular da retina.";}i:2;i:620;}i:13;a:3:{i:0;s:7:"p_close";i:1;a:0:{}i:2;i:1170;}i:14;a:3:{i:0;s:13:"section_close";i:1;a:0:{}i:2;i:1172;}i:15;a:3:{i:0;s:6:"header";i:1;a:3:{i:0;s:6:"Causas";i:1;i:3;i:2;i:1172;}i:2;i:1172;}i:16;a:3:{i:0;s:12:"section_open";i:1;a:1:{i:0;i:3;}i:2;i:1172;}i:17;a:3:{i:0;s:2:"hr";i:1;a:0:{}i:2;i:1188;}i:18;a:3:{i:0;s:6:"p_open";i:1;a:0:{}i:2;i:1188;}i:19;a:3:{i:0;s:5:"cdata";i:1;a:1:{i:0;s:617:"Os descolamentos de retina podem ser provocados por uma ruptura por onde penetra o vítreo – substância gelatinosa - que se deposita entre a camada da retina onde estão os fotorreceptores e a camada onde se localizam os vasos sanguíneos que lhe fornecem nutrientes.
Os descolamentos podem ocorrer, também, não por ruptura, mas por tração ou repuxamento na região da retina onde se formaram aderências em virtude de alterações no vítreo, que se torna mais fluido com o passar da idade ou, ainda, podem ser provocados por tumores ou doenças inflamatórias que favorecem o acúmulo do fluido sob a retina.";}i:2;i:1194;}i:20;a:3:{i:0;s:7:"p_close";i:1;a:0:{}i:2;i:1811;}i:21;a:3:{i:0;s:13:"section_close";i:1;a:0:{}i:2;i:1813;}i:22;a:3:{i:0;s:6:"header";i:1;a:3:{i:0;s:8:"Sintomas";i:1;i:3;i:2;i:1813;}i:2;i:1813;}i:23;a:3:{i:0;s:12:"section_open";i:1;a:1:{i:0;i:3;}i:2;i:1813;}i:24;a:3:{i:0;s:2:"hr";i:1;a:0:{}i:2;i:1831;}i:25;a:3:{i:0;s:6:"p_open";i:1;a:0:{}i:2;i:1831;}i:26;a:3:{i:0;s:5:"cdata";i:1;a:1:{i:0;s:260:"O deslocamento de retina não gera nenhuma dor. Os sintomas são:
•	Visão turva e borrada
•	Flashes luminosos
•	A sensação de insetos voando diante de seus olhos
•	Sombra na visão periférica ou central
•	Em casos graves, perda completa da visão";}i:2;i:1837;}i:27;a:3:{i:0;s:7:"p_close";i:1;a:0:{}i:2;i:2097;}i:28;a:3:{i:0;s:13:"section_close";i:1;a:0:{}i:2;i:2099;}i:29;a:3:{i:0;s:6:"header";i:1;a:3:{i:0;s:12:"Diagnóstico";i:1;i:3;i:2;i:2099;}i:2;i:2099;}i:30;a:3:{i:0;s:12:"section_open";i:1;a:1:{i:0;i:3;}i:2;i:2099;}i:31;a:3:{i:0;s:2:"hr";i:1;a:0:{}i:2;i:2121;}i:32;a:3:{i:0;s:6:"p_open";i:1;a:0:{}i:2;i:2121;}i:33;a:3:{i:0;s:5:"cdata";i:1;a:1:{i:0;s:223:"Apresentando qualquer um dos sintomas, um médico deve ser procurado o mais rápido possível.
Então mapeamento da retina, oftalmoscopia indireta e ultrassom ocular são exames capazes de detectar o deslocamento de retina.";}i:2;i:2127;}i:34;a:3:{i:0;s:7:"p_close";i:1;a:0:{}i:2;i:2350;}i:35;a:3:{i:0;s:13:"section_close";i:1;a:0:{}i:2;i:2352;}i:36;a:3:{i:0;s:6:"header";i:1;a:3:{i:0;s:10:"Tratamento";i:1;i:3;i:2;i:2352;}i:2;i:2352;}i:37;a:3:{i:0;s:12:"section_open";i:1;a:1:{i:0;i:3;}i:2;i:2352;}i:38;a:3:{i:0;s:2:"hr";i:1;a:0:{}i:2;i:2372;}i:39;a:3:{i:0;s:6:"p_open";i:1;a:0:{}i:2;i:2372;}i:40;a:3:{i:0;s:5:"cdata";i:1;a:1:{i:0;s:435:"O tipo de tratamento depende diretamente da gravidade do descolamento de retina.
Quando o deslocamento ocorre e o paciente rapidamente procura um médico, fazendo com que o liquido vítreo não infiltre no espaço que se abriu com a ruptura da retina, recursos terapêuticos como fotocoagulação com laser e criopexia (congelamento) são suficientes para formar cicatrizes que interrompam a ruptura e favoreçam a fixação da retina.";}i:2;i:2378;}i:41;a:3:{i:0;s:7:"p_close";i:1;a:0:{}i:2;i:2813;}i:42;a:3:{i:0;s:6:"p_open";i:1;a:0:{}i:2;i:2813;}i:43;a:3:{i:0;s:5:"cdata";i:1;a:1:{i:0;s:149:"Já quando há a infiltração do vítreo, apenas cirurgia é capaz de reverter o trauma. Isso pode ser feito pelas seguintes técnicas operatórias:";}i:2;i:2815;}i:44;a:3:{i:0;s:7:"p_close";i:1;a:0:{}i:2;i:2964;}i:45;a:3:{i:0;s:10:"listo_open";i:1;a:0:{}i:2;i:2964;}i:46;a:3:{i:0;s:13:"listitem_open";i:1;a:1:{i:0;i:1;}i:2;i:2964;}i:47;a:3:{i:0;s:16:"listcontent_open";i:1;a:0:{}i:2;i:2964;}i:48;a:3:{i:0;s:5:"cdata";i:1;a:1:{i:0;s:287:" Retinopatia pneumática - injeção de gás na cavidade ocupada pelo vítreo, como forma de pressionar a área descolada da retina e impedir a passagem desse gel pela fenda que se formou. Tanto o gás injetado, quanto o fluido sob a retina serão aos poucos reabsorvidos pelo organismo;";}i:2;i:2968;}i:49;a:3:{i:0;s:17:"listcontent_close";i:1;a:0:{}i:2;i:3255;}i:50;a:3:{i:0;s:14:"listitem_close";i:1;a:0:{}i:2;i:3255;}i:51;a:3:{i:0;s:13:"listitem_open";i:1;a:1:{i:0;i:1;}i:2;i:3255;}i:52;a:3:{i:0;s:16:"listcontent_open";i:1;a:0:{}i:2;i:3255;}i:53;a:3:{i:0;s:5:"cdata";i:1;a:1:{i:0;s:189:" Retinopexia - implantação de uma faixa ou esponja de silicone ao redor do globo ocular para pressionar a esclera (o branco dos olhos) a fim de apoiar a retina e facilitar sua aderência;";}i:2;i:3259;}i:54;a:3:{i:0;s:17:"listcontent_close";i:1;a:0:{}i:2;i:3448;}i:55;a:3:{i:0;s:14:"listitem_close";i:1;a:0:{}i:2;i:3448;}i:56;a:3:{i:0;s:13:"listitem_open";i:1;a:1:{i:0;i:1;}i:2;i:3448;}i:57;a:3:{i:0;s:16:"listcontent_open";i:1;a:0:{}i:2;i:3448;}i:58;a:3:{i:0;s:5:"cdata";i:1;a:1:{i:0;s:161:" Vitreoctomia - através de microincisões, são introduzidos instrumentos de tamanho diminuto para corrigir os defeitos que promoveram o deslocamento da retina.";}i:2;i:3452;}i:59;a:3:{i:0;s:17:"listcontent_close";i:1;a:0:{}i:2;i:3613;}i:60;a:3:{i:0;s:14:"listitem_close";i:1;a:0:{}i:2;i:3613;}i:61;a:3:{i:0;s:11:"listo_close";i:1;a:0:{}i:2;i:3613;}i:62;a:3:{i:0;s:6:"p_open";i:1;a:0:{}i:2;i:3613;}i:63;a:3:{i:0;s:5:"cdata";i:1;a:1:{i:0;s:353:"No pós-operatório, o paciente fica algum tempo com um curativo sobre o olho operado para deixá-lo em completo repouso. Deve também evitar movimentos bruscos e a prática de esportes. Viagens de avião são desaconselhadas nessa fase.
Dependendo da gravidade e da localização do deslocamento da retina, a visão pode não ser recuperada totalmente.";}i:2;i:3614;}i:64;a:3:{i:0;s:7:"p_close";i:1;a:0:{}i:2;i:3967;}i:65;a:3:{i:0;s:13:"section_close";i:1;a:0:{}i:2;i:3969;}i:66;a:3:{i:0;s:6:"header";i:1;a:3:{i:0;s:12:"Referências";i:1;i:3;i:2;i:3969;}i:2;i:3969;}i:67;a:3:{i:0;s:12:"section_open";i:1;a:1:{i:0;i:3;}i:2;i:3969;}i:68;a:3:{i:0;s:2:"hr";i:1;a:0:{}i:2;i:3991;}i:69;a:3:{i:0;s:6:"p_open";i:1;a:0:{}i:2;i:3991;}i:70;a:3:{i:0;s:12:"externallink";i:1;a:2:{i:0;s:47:"http://en.wikipedia.org/wiki/Retinal_detachment";i:1;N;}i:2;i:3997;}i:71;a:3:{i:0;s:9:"linebreak";i:1;a:0:{}i:2;i:4048;}i:72;a:3:{i:0;s:5:"cdata";i:1;a:1:{i:0;s:1:"
";}i:2;i:4050;}i:73;a:3:{i:0;s:12:"externallink";i:1;a:2:{i:0;s:61:"http://drauziovarella.com.br/letras/r/descolamento-de-retina/";i:1;N;}i:2;i:4051;}i:74;a:3:{i:0;s:9:"linebreak";i:1;a:0:{}i:2;i:4116;}i:75;a:3:{i:0;s:5:"cdata";i:1;a:1:{i:0;s:1:"
";}i:2;i:4118;}i:76;a:3:{i:0;s:12:"externallink";i:1;a:2:{i:0;s:62:"http://www.minhavida.com.br/saude/temas/descolamento-de-retina";i:1;N;}i:2;i:4119;}i:77;a:3:{i:0;s:9:"linebreak";i:1;a:0:{}i:2;i:4185;}i:78;a:3:{i:0;s:5:"cdata";i:1;a:1:{i:0;s:0:"";}i:2;i:4187;}i:79;a:3:{i:0;s:7:"p_close";i:1;a:0:{}i:2;i:4187;}i:80;a:3:{i:0;s:13:"section_close";i:1;a:0:{}i:2;i:4187;}i:81;a:3:{i:0;s:12:"document_end";i:1;a:0:{}i:2;i:4187;}}